<svg xmlns="http://www.w3.org/2000/svg" width="250" height="250" viewBox="0 0 250 250">
  <g id="conversation-2" transform="translate(0 -8.408)">
    <path id="Path_1367" data-name="Path 1367" d="M89.406,440.165h19.212l15.723-2.187,15.571,2.187h61.677l15.336-3.017,15.958,3.017h19.226v29.426H89.406Z" transform="translate(-45.751 -211.184)" fill="#d9d9d9" fill-rule="evenodd"/>
    <path id="Path_1368" data-name="Path 1368" d="M0,412.335V349.746a14.062,14.062,0,0,1,14.007-14.021H37.136c.4,0,.789.028,1.19.055a10.741,10.741,0,0,1,9.606,4.208L66.743,364.9a4.3,4.3,0,0,0,3.848,1.924H94.162a10.72,10.72,0,1,1,0,21.439H62.868A10.694,10.694,0,0,1,54.327,384l-3.183-4.222v37.911H5.357A6.626,6.626,0,0,1,0,412.335Z" transform="translate(0 -159.284)" fill="#a7d3b2" fill-rule="evenodd"/>
    <path id="Path_1369" data-name="Path 1369" d="M402.077,412.335V349.746a14.053,14.053,0,0,0-14.007-14.021H364.955c-.4,0-.8.028-1.19.055a10.751,10.751,0,0,0-9.62,4.208L335.334,364.9a4.328,4.328,0,0,1-3.848,1.924H307.916a10.72,10.72,0,1,0,0,21.439H339.21A10.693,10.693,0,0,0,347.75,384l3.2-4.222v37.911h45.773A6.626,6.626,0,0,0,402.077,412.335Z" transform="translate(-152.077 -159.284)" fill="#a7d3b2" fill-rule="evenodd"/>
    <path id="Path_1370" data-name="Path 1370" d="M212.908,134.673h61.427l15.544,15.543c1.231,1.232,2.644.512,2.644-1.107V134.673a14.437,14.437,0,0,0,14.395-14.394V83.946a14.437,14.437,0,0,0-14.395-14.4H212.908a14.437,14.437,0,0,0-14.4,14.4v36.333a14.437,14.437,0,0,0,14.4,14.394Z" transform="translate(-101.583 -31.288)" fill="#ffd300" fill-rule="evenodd"/>
    <path id="Path_1371" data-name="Path 1371" d="M41.554,88.866h64.625a19.156,19.156,0,0,0,19.1-19.1V27.509a19.156,19.156,0,0,0-19.1-19.1H23.353a19.157,19.157,0,0,0-19.1,19.1V69.765a19.157,19.157,0,0,0,19.1,19.1v14.45a1.489,1.489,0,0,0,2.657,1.093Z" transform="translate(-2.176 0)" fill="#ffd300" fill-rule="evenodd"/>
    <path id="Path_1372" data-name="Path 1372" d="M52.837,49.986a3.668,3.668,0,0,1,0-7.336h69.829a3.668,3.668,0,0,1,0,7.336Zm0,39.682a3.661,3.661,0,0,1,0-7.322H87.758a3.661,3.661,0,1,1,0,7.322Zm0-19.848a3.661,3.661,0,0,1,0-7.322h69.829a3.661,3.661,0,1,1,0,7.322Z" transform="translate(-25.168 -17.522)" fill="#009639"/>
    <g id="Group_1460" data-name="Group 1460" transform="translate(3.031 9.363)">
      <path id="Path_1375" data-name="Path 1375" d="M10.686,269.377a20.354,20.354,0,1,0,40.707,0V247.563A11.418,11.418,0,0,0,40,236.172H22.077a11.418,11.418,0,0,0-11.391,11.391Z" transform="translate(-8.499 -121.08)" fill="#ffcbbe" fill-rule="evenodd"/>
      <path id="Path_1376" data-name="Path 1376" d="M458.667,269.377a20.36,20.36,0,0,1-40.721,0V247.563a11.427,11.427,0,0,1,11.391-11.391h17.938a11.427,11.427,0,0,1,11.391,11.391Z" transform="translate(-216.902 -121.08)" fill="#d8a595" fill-rule="evenodd"/>
      <path id="Path_1377" data-name="Path 1377" d="M473.607,281.314a20.348,20.348,0,0,1-26.464,19.419,20.485,20.485,0,0,0,14.16-17.44c3.184.54,7.2.263,12.277-1.273l.028-22.519v21.813Z" transform="translate(-231.843 -132.824)" fill="#d09080" fill-rule="evenodd"/>
      <path id="Path_1378" data-name="Path 1378" d="M51.394,247.563v7.931A15.205,15.205,0,0,1,38.2,254.3c-2.146-1.218-2.519-1.218-2.769.733-.747,5.73-3.322,21.509-24.734,15.045l-.014-22.519a11.409,11.409,0,0,1,11.391-11.391H40a11.419,11.419,0,0,1,11.391,11.392Z" transform="translate(-8.5 -121.506)" fill="#d09080" fill-rule="evenodd"/>
      <path id="Path_1379" data-name="Path 1379" d="M417.945,247.563v7.931a15.237,15.237,0,0,0,13.2-1.19c2.131-1.218,2.5-1.218,2.754.733.747,5.73,3.335,21.509,24.734,15.045l.028-22.519a11.427,11.427,0,0,0-11.391-11.391H429.337a11.428,11.428,0,0,0-11.392,11.392Z" transform="translate(-216.902 -121.506)" fill="#477b9e" fill-rule="evenodd"/>
      <path id="Path_1380" data-name="Path 1380" d="M464.4,247.563v21.813a18.877,18.877,0,0,1-.1,1.979c3.184.54,7.2.263,12.277-1.273l.028-22.519a11.422,11.422,0,0,0-10.6-11.364,7.466,7.466,0,0,0-.789-.028H453.01A11.428,11.428,0,0,1,464.4,247.563Z" transform="translate(-234.845 -121.506)" fill="#365e7d" fill-rule="evenodd"/>
      <path id="Path_1381" data-name="Path 1381" d="M54.112,288.93A20.444,20.444,0,0,1,39.856,308.35,20.348,20.348,0,0,0,66.32,288.931V275.048a15.132,15.132,0,0,1-12.208-.664Z" transform="translate(-23.426 -140.327)" fill="#f7beaf" fill-rule="evenodd"/>
      <path id="Path_1382" data-name="Path 1382" d="M45.725,236.172a11.418,11.418,0,0,1,11.391,11.391v7.267a15.13,15.13,0,0,0,12.208.664v-7.931a11.418,11.418,0,0,0-11.391-11.391Z" transform="translate(-26.43 -121.809)" fill="#be694f" fill-rule="evenodd"/>
      <path id="Path_1385" data-name="Path 1385" d="M81.221,396.5a.814.814,0,0,0-1.481.5v51.613H91.948V410.7Z" transform="translate(-43.836 -199.57)" fill="#82b990" fill-rule="evenodd"/>
      <path id="Path_1386" data-name="Path 1386" d="M481.4,349.847v62.589a6.611,6.611,0,0,1-5.342,5.356h12.194a6.627,6.627,0,0,0,5.356-5.356V349.847a14.065,14.065,0,0,0-12.4-13.924,20.287,20.287,0,0,1-4.928,3.1A14,14,0,0,1,481.4,349.847Z" transform="translate(-246.638 -168.748)" fill="#82b990" fill-rule="evenodd"/>
      <path id="Path_1387" data-name="Path 1387" d="M198.8,122.488a14.467,14.467,0,0,0,14.257,12.346H274.48l15.544,15.543c1.231,1.232,2.644.512,2.644-1.107V134.833a14.437,14.437,0,0,0,14.395-14.394V84.106a14.429,14.429,0,0,0-12.346-14.242,14.105,14.105,0,0,1,.138,2.035v36.333a14.425,14.425,0,0,1-14.381,14.395H200.844a16.792,16.792,0,0,1-2.048-.138Z" transform="translate(-104.759 -40.811)" fill="rgba(241,175,64,0.35)" fill-rule="evenodd"/>
      <path id="Path_1388" data-name="Path 1388" d="M114.073,58.558a19.113,19.113,0,0,1-19.1,19.114H12.146a19.13,19.13,0,0,1-5.938-.955A19.169,19.169,0,0,0,24.354,89.866v14.45a1.489,1.489,0,0,0,2.657,1.093L42.555,89.866h64.625a19.156,19.156,0,0,0,19.1-19.1V28.509a19.163,19.163,0,0,0-13.163-18.146,18.8,18.8,0,0,1,.955,5.938V58.558Z" transform="translate(-6.208 -10.363)" fill="rgba(241,175,64,0.35)" fill-rule="evenodd"/>
      <path id="Path_1389" data-name="Path 1389" d="M382.285,443.327h12.208v29.426H382.285Z" transform="translate(-198.654 -223.708)" fill="#c8c6cd" fill-rule="evenodd"/>
    </g>
  </g>
</svg>
