<?xml version="1.0" encoding="utf-8"?>
<!-- Generator: Adobe Illustrator 24.0.1, SVG Export Plug-In . SVG Version: 6.00 Build 0)  -->
<svg version="1.1" id="Layer_1" xmlns="http://www.w3.org/2000/svg" xmlns:xlink="http://www.w3.org/1999/xlink" x="0px" y="0px"
	 viewBox="0 0 1388.6 980" style="enable-background:new 0 0 1388.6 980;" xml:space="preserve">
<style type="text/css">
	.st0{opacity:0.596;}
	.st1{fill:#EBEBEB;}
	.st2{fill:#E0E0E0;}
	.st3{fill:#F5F5F5;}
	.st4{opacity:0.597;}
	.st5{fill:#FAFAFA;}
	.st6{fill:#E1F0E4;}
	.st7{fill:#FFD300;}
	.st8{fill:#F1AF40;}
	.st9{fill:#009639;}
	.st10{fill:#EFC276;}
	.st11{fill:#F5FBFF;}
	.st12{fill:#A7D3B2;}
	.st13{fill:#FFFFFF;}
	.st14{fill:#FFB27D;}
	.st15{fill:#233862;}
	.st16{fill:#A9453D;}
	.st17{fill:#ED975D;}
	.st18{fill:#1A1A1A;}
	.st19{fill:#5F9AA8;}
	.st20{opacity:0.6;}
	.st21{fill:#026427;}
	.st22{fill:#DFEBFD;}
	.st23{fill:#F9DDBF;}
	.st24{fill:#F99746;}
	.st25{fill:#163560;}
	.st26{fill:#F2CCAA;}
	.st27{fill:#1B3051;}
	.st28{fill:#1E3C68;}
	.st29{fill:#2B478B;}
	.st30{opacity:0.402;fill:#FFE567;enable-background:new    ;}
	.st31{fill:#00C149;}
	.st32{opacity:0.3;}
	.st33{opacity:0.4;}
</style>
<g id="Group_2867" transform="translate(-589.688 -99.676)">
	<g id="Group_1862" transform="translate(740.292 912.883)" class="st0">
		<g id="Group_1844" transform="translate(0 0)">
			<g id="Group_1830" transform="translate(50.219 66.53)">
				<g id="Group_1829">
					<path id="Path_1731" class="st1" d="M6.1,2.5c5.1-2.6,11.1-3,16.8-2C26,1,29.2,1.9,31.3,4.2s2.5,6.3,0.1,8.3
						c-1.4,1.2-3.4,1.4-5.2,1.3c-4.4-0.1-9.4-0.8-12.9,1.8c-2,1.5-3.4,4.1-5.8,4.8c-2.4,0.7-5-0.7-6.3-2.8c-1.2-2.2-1.4-4.8-0.7-7.2
						C0.9,7,3.1,4.1,6.1,2.5z"/>
				</g>
			</g>
			<g id="Group_1832" transform="translate(41.677)">
				<g id="Group_1831">
					<path id="Path_1732" class="st1" d="M3,46.4c3.1,4.5,9.2,3,12,0.3s4-6.7,5.1-10.5c2.5-8.6,5-17.7,3.1-26.4
						c-0.4-2.7-1.6-5.1-3.4-7.2c-1.8-2-4.6-3-7.3-2.4C9.5,1,7.6,4,6.2,6.9C2.2,15.3,0,24.5,0,33.9C0,38.3,0.5,42.8,3,46.4"/>
				</g>
			</g>
			<g id="Group_1834" transform="translate(0 14.381)">
				<g id="Group_1833">
					<path id="Path_1733" class="st1" d="M36,38.4c3.4-4,4-9.9,2.5-15s-4.9-9.3-8.9-12.9c-4.6-4.1-10-7.3-15.9-9.4
						C11.6,0.3,9.1-0.1,6.7,0C4.2,0.2,2,1.5,0.7,3.7c-1.7,3.2-0.1,7,1.7,10.2c3.1,5.6,6.5,10.9,10.4,15.9c3.1,4,6.7,8,11.5,9.8
						s9.7,1.6,12.2-1.7"/>
				</g>
			</g>
			<g id="Group_1837" transform="translate(44.362 72.736)">
				<g id="Group_1836">
					<g id="Group_1835">
						<path id="Path_1734" class="st2" d="M0.1,41.1c0.2-0.7,0.3-1.3,0.3-2c0.1-1.5,0.3-3.3,0.5-5.5c0.3-2.7,0.7-5.4,1.2-8.1
							c0.7-3.3,1.7-6.5,3-9.6c1.2-3.1,2.9-6,4.9-8.7C11.6,5,13.8,3.2,16.2,2c1.6-0.8,3.4-1.4,5.2-1.6c0.7,0,1.4-0.1,2-0.3
							C22.7,0,22,0,21.4,0c-1.9,0.1-3.7,0.6-5.4,1.4c-2.5,1.2-4.8,3-6.5,5.2c-2.1,2.7-3.8,5.7-5.1,8.9c-1.3,3.2-2.2,6.4-2.9,9.8
							c-0.5,2.7-0.9,5.5-1.1,8.2C0.1,35.8,0,37.7,0,39C0,39.7,0,40.4,0.1,41.1z"/>
					</g>
				</g>
			</g>
			<g id="Group_1840" transform="translate(44.362 17.957)">
				<g id="Group_1839">
					<g id="Group_1838">
						<path id="Path_1735" class="st2" d="M0.4,91.6c0.1-0.3,0.1-0.6,0.1-0.9c0-0.7,0-1.6,0-2.7c0-2.3,0-5.7,0.1-9.9
							c0.2-8.4,0.9-17.4,2.3-30C4.2,36.1,6,22.2,7.9,13.2c0.4-2.1,0.8-3.9,1.2-5.5c0.4-1.6,0.7-3,1-4.1c0.3-1.1,0.5-1.9,0.6-2.6
							c0.1-0.3,0.1-0.6,0.2-0.9c-0.1,0.3-0.3,0.6-0.3,0.9C10.3,1.6,10,2.4,9.7,3.5C9.4,4.6,9,6,8.6,7.6C8.2,9.2,7.7,11,7.3,13.1
							C5,23.8,3.2,34.5,2.1,45.4C0.7,58.1,0.1,69.7,0,78.1c0,4.2,0,7.6,0.1,9.9c0.1,1.1,0.1,2,0.2,2.7C0.3,91,0.4,91.3,0.4,91.6z"/>
					</g>
				</g>
			</g>
			<g id="Group_1843" transform="translate(15.003 24.781)">
				<g id="Group_1842">
					<g id="Group_1841">
						<path id="Path_1736" class="st2" d="M29.9,62.5c0.1-0.9,0.1-1.9,0-2.8c-0.1-1.8-0.4-4.4-0.9-7.6c-0.6-3.7-1.4-7.5-2.5-11.1
							c-1.2-4.5-2.8-8.9-4.6-13.1C18.6,19.9,14,12.7,8.2,6.5c-1-1.1-2.1-2.1-3.2-3C4.5,3.1,4.1,2.7,3.6,2.4L2.4,1.5
							C1.6,1,0.8,0.4,0,0c-0.1,0.2,3.4,2.2,7.8,6.9c5.6,6.2,10.1,13.4,13.3,21.2c1.8,4.2,3.4,8.6,4.7,13c1.1,3.6,1.9,7.3,2.6,11
							c0.6,3.2,0.9,5.8,1.1,7.6C29.5,60.6,29.7,61.6,29.9,62.5z"/>
					</g>
				</g>
			</g>
		</g>
		<g id="Group_1846" transform="translate(23.286 126.619)">
			<g id="Group_1845">
				<path id="Path_1737" class="st2" d="M0,0l2.2,30.6h39.4L43.8,0H0z"/>
			</g>
		</g>
		<g id="Group_1848" transform="translate(19.485 114.544)">
			<g id="Group_1847">
				<rect id="Rectangle_273" x="0" y="0" class="st2" width="52.3" height="12.1"/>
			</g>
		</g>
		<g id="Group_1850" transform="translate(19.485 156.084)">
			<g id="Group_1849">
				<path id="Path_1738" class="st1" d="M0,0v3.3h51.5V0H0z"/>
			</g>
		</g>
		<g id="Group_1852" transform="translate(21.944 159.431)">
			<g id="Group_1851">
				<path id="Path_1739" class="st2" d="M2.4,5.9L0,0h47.1l-2.8,5.9H2.4z"/>
			</g>
		</g>
		<g id="Group_1855" transform="translate(23.95 132.328)">
			<g id="Group_1854">
				<g id="Group_1853">
					<path id="Path_1740" class="st3" d="M42.4,4.3c0,0.1-0.1,0.2-0.2,0.3c-0.2,0.2-0.4,0.5-0.6,0.8l-2.3,2.9l-0.1,0.1l-0.1-0.1
						l-5.6-7.8h0.3l-5.5,7.9l-0.2,0.2L28,8.4l-6.6-7.8h0.4c-0.1,0.1-0.2,0.3-0.4,0.5l-5.9,7.4l-0.2,0.2l-0.2-0.3
						c-2-2.8-3.9-5.5-5.5-7.9l0.3,0C7.2,3.6,4.9,6.3,3.1,8.3L2.9,8.5L2.9,8.3C2,6.8,1.2,5.6,0.7,4.7l-0.5-1C0.1,3.6,0,3.5,0,3.4
						c0.1,0.1,0.2,0.2,0.2,0.3l0.6,0.9c0.5,0.9,1.3,2,2.2,3.5l-0.2,0c1.8-2.1,4-4.7,6.7-7.9l0.2-0.2l0.2,0.2l5.6,7.8l-0.4,0L21,0.7
						c0.1-0.2,0.2-0.3,0.4-0.5L21.6,0l0.2,0.2l6.6,7.8l-0.4,0l5.6-7.8L33.7,0l0.2,0.2l5.5,7.9l-0.2,0l2.4-2.9l0.6-0.7
						C42.3,4.5,42.3,4.4,42.4,4.3z"/>
				</g>
			</g>
		</g>
		<g id="Group_1858" transform="translate(23.614 126.173)">
			<g id="Group_1857">
				<g id="Group_1856">
					<path id="Path_1741" class="st3" d="M44.1,0.2c0,0.1-9.9,0.2-22,0.2S0,0.4,0,0.2S9.9,0,22,0S44.1,0.1,44.1,0.2z"/>
				</g>
			</g>
		</g>
		<g id="Group_1861" transform="translate(21.779 159.516)">
			<g id="Group_1860">
				<g id="Group_1859">
					<path id="Path_1742" class="st3" d="M47.9,0.2c0,0.1-10.7,0.2-23.9,0.2S0,0.4,0,0.2S10.7,0,23.9,0S47.9,0.1,47.9,0.2z"/>
				</g>
			</g>
		</g>
	</g>
	<g id="Group_1863" transform="translate(870.817 594.557)" class="st4">
		<g id="Group_1863-2" transform="translate(4.956)">
			<rect id="Rectangle_274" x="0" y="0" class="st2" width="149" height="246.6"/>
		</g>
		<g id="Group_1864" transform="translate(0)">
			<rect id="Rectangle_275" x="0" y="0" class="st1" width="149" height="246.6"/>
		</g>
		<g id="Group_1865" transform="translate(6.345 5.002)">
			<rect id="Rectangle_276" x="0" y="0" class="st5" width="136.3" height="236.6"/>
		</g>
		<g id="Group_1868" transform="translate(32.294 35.751)">
			<g id="Group_1866" transform="translate(0.002)">
				<rect id="Rectangle_277" x="0" y="0" class="st1" width="83.8" height="175.1"/>
			</g>
			<g id="Group_1867" transform="translate(0 48.551)">
				<path id="Path_1743" class="st2" d="M0,64.6C-0.2,48.3,14.5,32.3,30.7,30c7.7-1.1,15.9,0.4,23.2-2.5c12.9-5.3,17-22.4,30-27.5
					l0.6,126.6H0V64.6z"/>
			</g>
		</g>
	</g>
	<path id="Path_1432" class="st6" d="M1479,100v245.4c0,19.1-2.4,34.7-5.2,34.7h-0.7c-2.9,0-5.2-15.6-5.2-34.7l-0.4-245.4
		C1471.1,99,1475.2,100.8,1479,100z"/>
	<path id="Path_1433" class="st7" d="M1473.5,341.1c-40.7,0-73.7,34.9-73.7,77.9h147.4C1547.2,376,1514.2,341.1,1473.5,341.1z"/>
	<path id="Path_1434" class="st8" d="M1479.3,342.1c-2.1-0.5-4.3-0.7-6.5-0.7c-26.5,0-48,34.8-48,77.7h12.9
		C1437.8,379.7,1455.9,347.2,1479.3,342.1z"/>
	<g id="Group_1520" transform="translate(1692.621 909.744)">
		<g id="Group_1515" transform="translate(91.397 68.261)">
			<path id="Path_1435" d="M20.2,28.9c0,0-12-14-0.7-22.8c0,0,8.2-5,14.9-4.6c0,0-9.5,15.9-6.4,17.5s9.3-18.5,9.3-18.5
				s18.7-1.8,24.7,1.1c0,0-15.9,13.1-12.6,13.8s20.6-12,20.6-12s17.4,3,16.4,13.5s-6.9,13.9-9.5,13.6s-18-6.2-18.3-4
				s8.9,9.2,15.4,9.5c0,0-12.2,13.5-20.4,9.6s-8.8-10.1-13.9-12.4s-9.4-2.3-7.3,0.1s11.3,4.7,14.2,9.8s5.5,8.6-2.9,7.3
				S21.4,43,20.8,36L20.2,28.9z"/>
			<g id="Group_1514" transform="translate(0 17.183)">
				<path id="Path_1436" d="M77.8,0.1c0,0-47.2-1.8-57.6,11.7c-2,5.1-5.2,9.6-9.4,13.2l-1.1,3c0,0,8.2-8.6,11.1-9.1
					C20.8,18.8,16.2,2.1,77.8,0.1z"/>
				<path id="Path_1437" d="M10.8,24.9c0,0-10.1,7.5-10.8,20.9L1.8,46c0,0,3.2-13.8,9.1-19.2S10.8,24.9,10.8,24.9z"/>
			</g>
		</g>
		<g id="Group_1517" transform="translate(0 30.373)">
			<path id="Path_1438" d="M69.8,49.3c0,0,19-10.7,10.1-25.1c0,0-7.1-8.9-14.7-11.2c0,0,4.1,21.6,0,22.1s-2.8-24.4-2.8-24.4
				s-20-9.6-27.9-8.9c0,0,12.4,21.1,8.4,20.5s-18-21.8-18-21.8S4.3-3.2,1,8.9s2,18.3,5.1,19s22.6,0.5,22.1,3s-13.7,6.6-21.1,4.3
				c0,0,8.1,20,18.8,19s14-7.6,20.6-8.1s11.4,1.3,8.1,3s-14.5,0.6-19.8,5.1s-9.6,7.3,0.3,9.3s27.7,0.8,31.2-6.8L69.8,49.3z"/>
			<g id="Group_1516" transform="translate(10.428 12.741)">
				<path id="Path_1439" class="st9" d="M0,0c0,0,53.3,17.3,59.4,36.5c0.2,6.5,1.9,12.8,5.1,18.5v3.8c0,0-5.6-12.9-8.6-14.7
					C55.8,44.1,67.7,27.4,0,0z"/>
				<path id="Path_1440" class="st9" d="M64.4,55.1c0,0,8.2,12.5,3.5,27.7l-2.1-0.6c0,0,2.1-16.7-2.2-25.1S64.4,55.1,64.4,55.1z"/>
			</g>
		</g>
		<g id="Group_1519" transform="translate(83.575)">
			<path id="Path_1441" d="M16.5,65c0,0-25.1-14-13.4-33.1c0,0,9.4-11.7,19.4-14.7c0,0-5.4,28.4,0,29.1s3.7-32.1,3.7-32.1
				S52.6,1.4,63,2.4c0,0-16.4,27.8-11,27.1S75.7,0.7,75.7,0.7s27.1-5,31.4,11s-2.7,24.1-6.7,25.1s-29.8,0.7-29.1,4
				s18.1,8.7,27.8,5.7c0,0-10.7,26.4-24.7,25.1S56,61.6,47.3,60.9s-15.1,1.7-10.7,4s19.1,0.8,26.1,6.7s12.7,9.6-0.3,12.3
				s-36.5,1-41.1-9L16.5,65z"/>
			<g id="Group_1518" transform="translate(3.242 16.794)">
				<path id="Path_1442" class="st9" d="M91.5,0c0,0-70.2,22.7-78.3,48.2c0,0,0.3,11.4-6.7,24.4v5c0,0,7.4-17.1,11.4-19.4
					C17.9,58.2,2.2,36.1,91.5,0z"/>
				<path id="Path_1443" class="st9" d="M6.6,72.6c0,0-10.8,16.4-4.7,36.5l2.8-0.7c0,0-2.7-22.1,3-33.1S6.6,72.6,6.6,72.6z"/>
			</g>
		</g>
		<path id="Path_1444" class="st7" d="M99.2,169.2c27.1,0,49.1-22,49.1-49.1c0,0,0,0,0,0H50.1C50.1,147.2,72.1,169.2,99.2,169.2z"/>
		<path id="Path_1445" class="st10" d="M111.3,168.9c-26.9,3.4-51.5-15.8-54.9-42.7c-0.2-2-0.4-4-0.4-6h12.2
			C68.3,144.9,86.7,165.8,111.3,168.9z"/>
		<rect id="Rectangle_260" x="48.5" y="120.1" class="st8" width="101" height="1.5"/>
	</g>
	<g id="Group_1545" transform="translate(1396.754 769.146)">
		<g id="Group_1521" transform="translate(182.456 99.161)">
			<path id="Path_1446" class="st9" d="M48.3,208.3L0,7.9L3.4,0l47.8,208.2c0.1,0.5-0.2,0.9-0.6,1c-0.1,0-0.1,0-0.2,0h-0.8
				C49,209.3,48.4,208.9,48.3,208.3z"/>
		</g>
		<g id="Group_1544" transform="translate(0 0)">
			<g id="Group_1522" transform="translate(11.244 220.392)">
				<path id="Path_1447" class="st9" d="M1.6,88.1L1.6,88.1c-0.9,0-1.6-0.7-1.6-1.6c0-0.1,0-0.2,0-0.3L14.2,0h6.1l-17,86.6
					C3.2,87.4,2.5,88.1,1.6,88.1z"/>
			</g>
			<g id="Group_1523" transform="translate(147.649 220.392)">
				<path id="Path_1448" class="st9" d="M1.6,88.1L1.6,88.1c-0.9,0-1.6-0.7-1.6-1.6c0-0.1,0-0.2,0-0.3L14.2,0h6.1l-17,86.6
					C3.2,87.4,2.5,88.1,1.6,88.1z"/>
			</g>
			<path id="Path_1449" class="st11" d="M182.3,220.6H12.5L47.7,0h169.8L182.3,220.6z"/>
			<rect id="Rectangle_261" x="0" y="218.9" class="st9" width="195" height="6.5"/>
			<g id="Group_1524" transform="translate(51.303 13.259)">
				<path id="Path_1450" class="st12" d="M63.6,32.9c-0.1,1.7-0.4,3.4-0.8,5.1c-3.5,15.8-17.6,27.8-33.4,27.9
					C11.9,65.9-1.2,51.2,0.1,33S16.7,0,34.3,0c3.5,0,7,0.6,10.4,1.8c4.5,1.7,8.5,4.4,11.6,8.1c1.2,1.4,2.3,2.9,3.2,4.4
					c0.5,0.9,1,1.9,1.5,2.9c1.3,2.8,2.1,5.8,2.5,8.8c0.2,1.6,0.3,3.2,0.3,4.8C63.7,31.5,63.7,32.2,63.6,32.9z"/>
				<path id="Path_1451" class="st13" d="M61,17.2L31.9,32.9c0,0,12-21.1,16.9-29.2c2.8,1.6,5.4,3.7,7.5,6.1
					c1.2,1.4,2.3,2.9,3.2,4.4C60,15.3,60.5,16.2,61,17.2z"/>
				<path id="Path_1452" class="st7" d="M64,13.2L37.4,27.6c0,0,11-19.3,15.5-26.7c2.6,1.5,4.9,3.4,6.9,5.6c1.1,1.3,2.1,2.6,2.9,4.1
					C63.1,11.4,63.6,12.3,64,13.2z"/>
			</g>
			<g id="Group_1530" transform="translate(29.031 123.148)">
				<g id="Group_1525">
					<path id="Path_1453" class="st12" d="M139.8,80.7L0,80.6L14.2,0l139.8,0L139.8,80.7z M1.1,79.8l137.8,0l13.9-79L15,0.8
						L1.1,79.8z"/>
				</g>
				<g id="Group_1527" transform="translate(7.475 44.639)">
					<path id="Path_1454" class="st7" d="M124,25L0,25c0,0,22-11.8,28-11.2s14.7,5.4,20.3,5.6S59.9,2.8,66.1,3.6s8.5,15.6,11.8,14.1
						s12.9-2.1,18.4,0s13.7-6.6,18.5-6.3S124,25,124,25z"/>
					<g id="Group_1526" transform="translate(5.661)">
						<path id="Path_1455" class="st7" d="M24.1,1.3H0.5L0.7,0h23.7L24.1,1.3z"/>
						<path id="Path_1456" class="st7" d="M23.7,3.9H0l0.2-1.3h23.7L23.7,3.9z"/>
					</g>
				</g>
				<g id="Group_1529" transform="translate(14.569 6.518)">
					<path id="Path_1457" class="st12" d="M0,22.6l124,0c0,0-17.9-11.8-24.1-11.2s-16.6,5.4-22.2,5.6S71.8,0.5,65.3,1.3
						s-14,15.6-16.7,14.1s-12.1-2.1-18.4,0S18.9,8.8,13.9,9.1S0,22.6,0,22.6z"/>
					<g id="Group_1528" transform="translate(5.256)">
						<path id="Path_1458" class="st12" d="M24.1,1.3H0.5L0.7,0h23.7L24.1,1.3z"/>
						<path id="Path_1459" class="st12" d="M23.7,3.9H0l0.2-1.3h23.7L23.7,3.9z"/>
					</g>
				</g>
			</g>
			<g id="Group_1531" transform="translate(46.199 86.421)">
				<path id="Path_1460" class="st12" d="M5.4,25.5H0L4.7,0h5.4L5.4,25.5z"/>
				<path id="Path_1461" class="st12" d="M12.8,25.5H7.4l3.7-19.7h5.4L12.8,25.5z"/>
				<path id="Path_1462" class="st12" d="M20.3,25.5h-5.4l3.8-20.6h5.4L20.3,25.5z"/>
				<path id="Path_1463" class="st12" d="M27.7,25.5h-5.4l2.9-15.7h5.4L27.7,25.5z"/>
				<path id="Path_1464" class="st12" d="M35.1,25.5h-5.4l3.1-16.8h5.4L35.1,25.5z"/>
				<path id="Path_1465" class="st12" d="M42.5,25.5H37l2.4-13h5.4L42.5,25.5z"/>
			</g>
			<g id="Group_1532" transform="translate(118.935 86.421)">
				<path id="Path_1466" class="st7" d="M5.4,25.5H0L4.7,0h5.4L5.4,25.5z"/>
				<path id="Path_1467" class="st7" d="M12.8,25.5H7.4l3.7-19.7h5.4L12.8,25.5z"/>
				<path id="Path_1468" class="st7" d="M20.2,25.5h-5.4l3.8-20.6h5.4L20.2,25.5z"/>
				<path id="Path_1469" class="st7" d="M27.7,25.5h-5.4l2.9-15.7h5.4L27.7,25.5z"/>
				<path id="Path_1470" class="st7" d="M35.1,25.5h-5.4l3.1-16.8h5.4L35.1,25.5z"/>
				<path id="Path_1471" class="st7" d="M42.5,25.5H37l2.4-13h5.4L42.5,25.5z"/>
			</g>
			<g id="Group_1541" transform="translate(127.144 20.646)">
				<g id="Group_1533" transform="translate(5.706 5.657)">
					<path id="Path_1472" class="st12" d="M17.7,2.4H0L0.5,0h17.7L17.7,2.4z"/>
					<path id="Path_1473" class="st12" d="M39.4,2.4H19.9L20.3,0h19.5L39.4,2.4z"/>
					<path id="Path_1474" class="st12" d="M53.3,2.4H40.9L41.3,0h12.5L53.3,2.4z"/>
					<path id="Path_1475" class="st12" d="M65,2.4h-9.6L55.8,0h9.6L65,2.4z"/>
				</g>
				<g id="Group_1534" transform="translate(3.764 16.002)">
					<path id="Path_1476" class="st12" d="M17.7,2.4H0L0.5,0h17.7L17.7,2.4z"/>
					<path id="Path_1477" class="st12" d="M39.4,2.4H19.9L20.3,0h19.5L39.4,2.4z"/>
					<path id="Path_1478" class="st12" d="M53.3,2.4H40.9L41.3,0h12.5L53.3,2.4z"/>
					<path id="Path_1479" class="st12" d="M65,2.4h-9.6L55.8,0h9.6L65,2.4z"/>
				</g>
				<g id="Group_1535" transform="translate(6.769)">
					<path id="Path_1480" class="st12" d="M27.2,2.4H0L0.5,0h27.2L27.2,2.4z"/>
					<path id="Path_1481" class="st12" d="M45.4,2.4H29.7L30.2,0h15.7L45.4,2.4z"/>
					<path id="Path_1482" class="st12" d="M65,2.4H47.6L48.1,0h17.4L65,2.4z"/>
				</g>
				<g id="Group_1536" transform="translate(4.703 11)">
					<path id="Path_1483" class="st12" d="M27.2,2.4H0L0.5,0h27.2L27.2,2.4z"/>
					<path id="Path_1484" class="st12" d="M45.4,2.4H29.7L30.2,0h15.7L45.4,2.4z"/>
					<path id="Path_1485" class="st12" d="M65,2.4H47.6L48.1,0h17.4L65,2.4z"/>
				</g>
				<g id="Group_1537" transform="translate(1.821 26.347)">
					<path id="Path_1486" class="st12" d="M17.7,2.4H0L0.5,0h17.7L17.7,2.4z"/>
					<path id="Path_1487" class="st12" d="M39.4,2.4H19.9L20.3,0h19.5L39.4,2.4z"/>
					<path id="Path_1488" class="st12" d="M53.3,2.4H40.9L41.3,0h12.5L53.3,2.4z"/>
					<path id="Path_1489" class="st12" d="M65,2.4h-9.6L55.8,0h9.6L65,2.4z"/>
				</g>
				<g id="Group_1538" transform="translate(2.761 21.345)">
					<path id="Path_1490" class="st12" d="M27.2,2.4H0L0.5,0h27.2L27.2,2.4z"/>
					<path id="Path_1491" class="st12" d="M45.4,2.4H29.7L30.2,0h15.7L45.4,2.4z"/>
					<path id="Path_1492" class="st12" d="M65,2.4H47.6L48.1,0h17.4L65,2.4z"/>
				</g>
				<g id="Group_1539" transform="translate(0 36.046)">
					<path id="Path_1493" class="st12" d="M17.7,2.4H0L0.5,0h17.7L17.7,2.4z"/>
					<path id="Path_1494" class="st12" d="M39.4,2.4H19.9L20.3,0h19.5L39.4,2.4z"/>
					<path id="Path_1495" class="st12" d="M53.3,2.4H40.9L41.3,0h12.5L53.3,2.4z"/>
					<path id="Path_1496" class="st12" d="M65,2.4h-9.6L55.8,0h9.6L65,2.4z"/>
				</g>
				<g id="Group_1540" transform="translate(0.939 31.043)">
					<path id="Path_1497" class="st12" d="M27.2,2.4H0L0.5,0h27.2L27.2,2.4z"/>
					<path id="Path_1498" class="st12" d="M45.4,2.4H29.7L30.2,0h15.7L45.4,2.4z"/>
					<path id="Path_1499" class="st12" d="M65,2.4H47.6L48.1,0h17.4L65,2.4z"/>
				</g>
			</g>
			<g id="Group_1542" transform="translate(94.951 86.255)">
				<path id="Path_1500" class="st12" d="M9.6,4H1l0.2-1.2h8.7L9.6,4z"/>
				<path id="Path_1501" class="st12" d="M20.2,4h-9.6l0.2-1.2h9.6L20.2,4z"/>
				<path id="Path_1502" class="st12" d="M8.7,9H0l0.2-1.2h8.7L8.7,9z"/>
				<path id="Path_1503" class="st12" d="M19.3,9H9.7l0.2-1.2h9.6L19.3,9z"/>
				<path id="Path_1504" class="st12" d="M14.8,1.2H1.5L1.7,0H15L14.8,1.2z"/>
				<path id="Path_1505" class="st12" d="M23.7,1.2H16L16.3,0h7.7L23.7,1.2z"/>
				<path id="Path_1506" class="st12" d="M13.8,6.6H0.5l0.2-1.2H14L13.8,6.6z"/>
				<path id="Path_1507" class="st12" d="M22.7,6.6H15l0.2-1.2h7.7L22.7,6.6z"/>
			</g>
			<g id="Group_1543" transform="translate(164.349 86.255)">
				<path id="Path_1508" class="st12" d="M9.6,4H1l0.2-1.2h8.7L9.6,4z"/>
				<path id="Path_1509" class="st12" d="M20.2,4h-9.6l0.2-1.2h9.6L20.2,4z"/>
				<path id="Path_1510" class="st12" d="M8.7,9H0l0.2-1.2h8.7L8.7,9z"/>
				<path id="Path_1511" class="st12" d="M19.3,9H9.7l0.2-1.2h9.6L19.3,9z"/>
				<path id="Path_1512" class="st12" d="M14.8,1.2H1.5L1.7,0H15L14.8,1.2z"/>
				<path id="Path_1513" class="st12" d="M23.7,1.2H16L16.3,0h7.7L23.7,1.2z"/>
				<path id="Path_1514" class="st12" d="M13.8,6.6H0.5l0.2-1.2H14L13.8,6.6z"/>
				<path id="Path_1515" class="st12" d="M22.7,6.6H15l0.2-1.2h7.7L22.7,6.6z"/>
			</g>
		</g>
	</g>
	<g id="Group_1549" transform="translate(1576.875 705.619)">
		<g id="Group_1546" transform="translate(0 340.153)">
			<path id="Path_1516" class="st14" d="M39.9,28.6c-0.3,4.1-6.2,4.2-12.8,3.4s-4.9,0.9-14.2,1S0.5,30.1,0,28.7
				c-0.4-1.2,4.1-2.2,8.9-3.3c0.6-0.1,1.2-0.3,1.8-0.4c5.4-1.4,9-5.4,13.6-8.9c4.4-3.3,10-15.4,10-15.4L47,0c0,0-5.3,10.8-7.4,15.5
				c-1.2,2.8-0.7,6.1-0.2,8.7C39.8,25.7,40,27.1,39.9,28.6z"/>
			<path id="Path_1517" class="st15" d="M27.1,32c-6.6-0.8-4.9,0.9-14.2,1S0.5,30.1,0,28.7c-0.4-1.2,4.1-2.2,8.9-3.3l0.1,0.1
				c4.2,2,9,2.9,13.6,2.4c6.2-0.6,12.6-3.2,16.9-3.7c0.3,1.4,0.5,2.9,0.4,4.3C39.6,32.7,33.8,32.7,27.1,32z"/>
		</g>
		<g id="Group_1547" transform="translate(87.69 332.52)">
			<path id="Path_1518" class="st14" d="M39.9,37c-0.3,4.1-6.1,4.2-12.8,3.4s-4.9,0.9-14.2,1.1S0.5,38.6,0,37.3
				c-0.4-1.2,4.1-2.2,8.9-3.3c0.6-0.1,1.2-0.3,1.8-0.5c5.4-1.4,9-5.4,13.6-9c4.4-3.3,0-23.2,0-23.2l14-1.4c0,0-0.7,16.7-0.7,24.3
				c0,3,1.4,5.9,1.9,8.5C39.8,34.1,40,35.6,39.9,37z"/>
			<path id="Path_1519" class="st15" d="M27.1,40.5c-6.6-0.8-4.9,0.9-14.2,1.1S0.5,38.6,0,37.3c-0.4-1.2,4.1-2.2,8.9-3.3L8.9,34
				c4.2,2,9,2.9,13.6,2.4c6.2-0.6,12.6-3.2,16.9-3.7c0.3,1.4,0.5,2.9,0.4,4.3C39.6,41.2,33.8,41.2,27.1,40.5z"/>
		</g>
		<path id="Path_1520" class="st16" d="M86.9,27.1c-2.4-9.9,1.1-14.5,4.2-16.9c1.5-3.6,3.2-6.3,4.9-7.3c3-1.5,6.3-2.1,9.6-1.8
			c-0.6-0.5-1.3-0.8-2-1c1.6-0.2,5.3,1.4,5.3,1.4c22.9-8.8,26.6,24.9,26.1,32.8s-0.4,17.1,11.5,23.3c22.8,11.8-7.6,56.3-7.6,56.3
			c0.6-6.3-28.7-39.8-44-49.8c-3.7-5.5-5-15.1-5.1-15.9c0.6,7.7,2,12,3.1,14.4C86.1,56,85,40.7,86.9,27.1z"/>
		<path id="Path_1521" class="st14" d="M95.9,64.5c-0.1,0,7.4,3.9,13,2.4c5.3-1.4,8.7-8.3,8.6-8.3c-2.2-0.4-2.9-3.5-2.8-16.7l-1,0.2
			l-17,3.4c0,0,0.4,5.3,0.4,10.4C97.2,60,96.9,64,95.9,64.5z"/>
		<path id="Path_1522" class="st17" d="M96.7,45.4c0,0,0.4,5.3,0.4,10.4c9.5-0.3,14.5-8.9,16.6-13.7L96.7,45.4z"/>
		<path id="Path_1523" class="st18" d="M27.7,347.4c-0.7,2.2,0.5,4.5,2.7,5.2c0.3,0.1,0.7,0.2,1.1,0.2l6.6,0.3l7,0.2
			c1.8,0.1,3.4-0.7,4.5-2.1c14.8-18.8,26.1-40.2,33.3-63c0.3-0.9,0.6-1.9,0.9-2.8c6.9-20.1,21.2-45.4,28.8-68.3
			c1.2-3.6,2.3-7.1,3.2-10.3c0.3-1,0.6-2.1,0.9-3.1c5.6-19.3,7.2-32,8.6-45.5L71,158.7C71,158.7,59.5,247.8,27.7,347.4z"/>
		<path id="Path_1524" class="st13" d="M78.6,127.5c0.1,25.9-3.8,37-3.8,37c16.1,7.1,34.2,8.3,51,3.1c0.3-0.1,19.8-5.6,19.8-5.6
			c-0.5-1-4.3-18.4-4.8-19.3c-5.8-12.6-7.4-17.8-8.1-21.7c-1.2-7.2-1.4-14.5-0.7-21.7c1.1-11.6,3.3-23,6.7-34.1
			c-7.6-1.7-14.6-4.7-22.5-7.7c-1.8,2.3-7.3,4.6-12.1,4.5c-5.5-0.1-7.3-2.5-7-5.1c-5.9,3.3-10.6,6.4-10.6,6.4
			c-5,8.7-15.1,17.1-15.9,30.4C70.5,97,78.6,126.7,78.6,127.5z"/>
		<path id="Path_1525" class="st19" d="M125.4,130.3c2.4,3.4,6.9,23.8,18.3,26.4c-5.9-14.6-10.3-21-11-25.5
			c-1.2-8.4-1.4-16.8-0.7-25.2c-3.8-6.7-6.6-11.2-6.6-11.2c-0.3-1.1-6-18.8-7.9-3C115.7,107.7,122.8,126.6,125.4,130.3z"/>
		<path id="Path_1526" class="st14" d="M93.6,50.2c0,0,22.5,0.4,22.5-13.6s2.9-23.4-11.4-24.2s-17.1,4.5-18.3,9.2
			S87.7,49.7,93.6,50.2z"/>
		<path id="Path_1527" class="st16" d="M94.4,12c0,0,6.1,16.4,15.6,18.8s13.5-0.1,13.5-0.1c-4.7-4.1-7.7-9.7-8.7-15.8
			C114.8,15,99,4.2,94.4,12z"/>
		<path id="Path_1528" class="st16" d="M95.9,13.3c0,0-4.6,3.7-5.7,7.2s-1.6,10.9-3.8,10.6c0,0-4.6-11.2,0.6-17.5
			C92.6,7.1,95.9,13.3,95.9,13.3z"/>
		<path id="Path_1529" class="st14" d="M58.2,145.4l-10.6,32.3l6.1,2.4l17.5-28.6L58.2,145.4z"/>
		<path id="Path_1530" class="st18" d="M86.8,61.3c0,0-12.5,5-16.1,12.7s-9.1,59.7-11.3,65s-3.8,9.6-3.8,9.6s6.3,5.3,12.7,5.7
			S86.8,61.3,86.8,61.3z"/>
		<path id="Path_1531" class="st18" d="M97.2,56.9c0,0-13,32.1-13.4,38.6s-1.5,106.3-1.5,106.3s0.8,4.6-8,2.7s-11.1-3.8-11.1-3.8
			s8.4-61.5,6.1-82.9s17.6-56.3,17.6-56.3L97.2,56.9z"/>
		<path id="Path_1532" d="M38.1,353.2l7.6,0.2c1.4,0,2.7-0.5,3.5-1.6c5.1-6.2,23-29.4,33.7-63.5c0.3-0.9,0.6-1.9,0.9-2.8
			c6.9-20.1,21.2-45.4,28.8-68.3c1.2-3.6,2.3-7.1,3.2-10.3c0.3-1,0.6-2.1,0.9-3.1l-8-6.1c0,0-24.1,39-31.5,75.7
			C70.8,305.3,44.8,343.6,38.1,353.2z"/>
		<path id="Path_1533" class="st18" d="M107.9,276.8c-0.1,16.9,0.7,54.5,2.7,72.9c0.2,1.7,1.6,3,3.3,3h5.7c2.4,0,4.2,0,5.4,0
			c1,0,1.9-0.8,2.1-1.8c5.7-28.8,9.7-52.6,12.7-73.3c2.5-17.3,4.7-32.1,6.4-44.8c1.7-12.8,2.9-23.6,3.3-32.7
			c0.1-1.4,0.1-2.8,0.1-4.2s0-2.7,0-4l-47.1-4.6C103.2,218.7,108,266.5,107.9,276.8z"/>
		<path id="Path_1534" d="M119.6,352.7c2.2,0,3.8,0,5,0c1.3,0,2.3-0.9,2.6-2.1c5.6-28.6,9.6-52.4,12.6-72.9
			c2.5-17.3,4.7-32.1,6.4-44.8c1.7-12.8,2.9-23.6,3.3-32.7l-17.3,10.2c0,0,11,3.9,6.8,33.3S125.5,348.5,119.6,352.7z"/>
		<path id="Path_1535" class="st18" d="M117.4,199.8c0,0,3.3,12,14.8,10.4s27.8-8.4,27.8-8.4s-4.9-15.5-11-35.8
			c-7.4-24.6-16.5-56.4-20.8-76.4c-1-4.5-1.8-9.1-2.3-13.7l-9.5-18.5c0,0-14.2,31.8-14.9,39.9S117.4,199.8,117.4,199.8z"/>
		<path id="Path_1536" class="st14" d="M128.9,96.2l-12.6-38.7c0,0,15.9,4.7,23.8,8.7c0,0,5,6.4,8.1,21.2c0,0,3.3,35.5-4,48.5
			c0,0-22.9,4.6-59.6-8v-8.4c0,0,40.1,2.1,48.4,3.1L128.9,96.2z"/>
		<path id="Path_1537" d="M117.9,114.2c0.5,13,3.6,38.2,30.8,51.7c0.1,0,0.1,0.1,0.2,0.1c-7.4-24.6-16.5-56.4-20.8-76.4
			C123.2,97.1,117.6,107.1,117.9,114.2z"/>
		<path id="Path_1538" class="st18" d="M116.3,57.5c0,0,23.3,1.6,28.9,14.1s7.4,54,0.3,66.3c0,0-9.8,2.8-27.2-0.5l-0.6-0.1
			c0,0-5.5-13.6-0.6-16.2c0,0,14.7,0.8,13.1-4.1S116.3,57.5,116.3,57.5z"/>
		<g id="Group_1548" transform="translate(55.19 112.881)">
			<path id="Path_1539" class="st16" d="M2.8,11.9l0.7,2.2L41.6,2.2c0.3-0.4,0.4-0.9,0.3-1.4C41.8,0.4,41.4,0,41,0L2.8,11.9z"/>
			<path id="Path_1540" class="st16" d="M0,14l2.8-2.1l0.7,2.2L0,14z"/>
		</g>
		<path id="Path_1541" class="st14" d="M49.1,176.9c0,0-9.7,5.4-11,9.4s-0.4,12.6,1.1,12.5s3.8-9.2,5.1-9.8s3.1-2.5,3.1-1.1
			s-1.3,4-0.6,4.3s2.7-3.6,4.1-4.3s2-7.1,3.4-8.8S49.1,176.9,49.1,176.9z"/>
		<path id="Path_1542" class="st14" d="M84.5,119.6c0,0-8.7-5.3-12.3-4.5s-12.9,7.5-8.4,9s8.1-0.1,9.8,1s3,3,11,3
			S84.5,119.6,84.5,119.6z"/>
	</g>
	<g id="Group_1559" transform="translate(1169.25 787.478)">
		<g id="Group_1553" transform="translate(16.195 94.766)" class="st20">
			<g id="Group_1550" transform="translate(41.846 94.424)">
				<path id="Path_1543" class="st21" d="M1.6,100.9H1.5c-0.8,0-1.5-0.7-1.5-1.5c0,0,0,0,0,0L2.3,0.8L9,0L3.3,99.4
					C3.2,100.2,2.5,100.9,1.6,100.9z"/>
			</g>
			<g id="Group_1551" transform="translate(2.797 94.424)">
				<path id="Path_1544" class="st21" d="M1.6,100.9H1.5c-0.8,0-1.5-0.7-1.5-1.5c0,0,0,0,0,0L2.3,0.8L9,0L3.3,99.4
					C3.2,100.2,2.5,100.9,1.6,100.9z"/>
			</g>
			<g id="Group_1552" transform="translate(104.861 94.424)">
				<path id="Path_1545" class="st21" d="M7.3,100.9h0.1c0.8,0,1.5-0.7,1.5-1.5c0,0,0,0,0,0L6.7,0.8L0,0l5.7,99.4
					C5.8,100.2,6.5,100.9,7.3,100.9z"/>
			</g>
			<path id="Path_1546" class="st21" d="M0,89.1V21.5C0,9.6,9.6,0,21.5,0l0,0h48.7c11.9,0,21.5,9.6,21.5,21.5l0,0v70.1L0,89.1z"/>
			<path id="Rectangle_262" class="st21" d="M0,89.1h100.5l0,0v10.7l0,0H10.7C4.8,99.8,0,95,0,89.1C0,89.1,0,89.1,0,89.1L0,89.1
				L0,89.1z"/>
			<path id="Rectangle_263" class="st21" d="M41.2,89.1h70c2.9,0,5.3,2.4,5.3,5.3l0,0c0,2.9-2.4,5.3-5.3,5.3h-70
				c-2.9,0-5.3-2.4-5.3-5.3l0,0C35.8,91.5,38.2,89.1,41.2,89.1z"/>
		</g>
		<g id="Group_1558" transform="translate(0 0)">
			<path id="Path_1547" class="st14" d="M181.1,250.8c0.7,3.4,5.5,2.8,10.9,1.5s4.1,0.2,11.8-0.6s10-3.7,10.3-4.9
				c0.2-1-3.6-1.4-7.7-1.8c-0.5-0.1-1-0.1-1.5-0.2c-4.6-0.6-8-3.6-12.2-6c-4-2.3-9.9-11.7-9.9-11.7l-10.6,0.8c0,0,5.5,8.4,7.7,12.1
				c1.3,2.2,1.2,5,1,7.2C180.9,248.4,180.9,249.6,181.1,250.8z"/>
			<path id="Path_1548" class="st15" d="M192,252.3c5.4-1.3,4.1,0.2,11.8-0.6s10-3.7,10.3-4.9c0.2-1-3.6-1.4-7.7-1.8l0,0.1
				c-3.3,2.1-7.1,3.3-11,3.4c-5.2,0.1-10.8-1.4-14.4-1.3c-0.1,1.2-0.1,2.4,0.1,3.6C181.8,254.2,186.6,253.6,192,252.3z"/>
			<path id="Path_1549" class="st14" d="M90.4,266c-2.1,2.8,1.5,6,6.1,9.2s2.5,3.3,8.3,8.5s9.4,5.1,10.4,4.5c0.9-0.5-1.3-3.6-3.7-7
				c-0.3-0.4-0.6-0.9-0.9-1.3c-2.6-3.8-2.6-8.3-3.6-13.1c-0.9-4.5,6.5-21,6.5-21l-11.8-1.5c0,0-1.5,10-2.9,14
				c-0.8,2.4-4.1,3.9-5.8,5.3C92.1,264.2,91.2,265,90.4,266z"/>
			<path id="Path_1550" class="st15" d="M96.5,275.2c4.6,3.2,2.5,3.3,8.3,8.5s9.4,5.1,10.4,4.5c0.9-0.5-1.3-3.6-3.7-7l-0.1,0
				c-3.8-1.1-7.2-3.1-9.9-6c-3.6-3.8-6.1-9-8.5-11.6c-1,0.7-1.9,1.5-2.7,2.4C88.3,268.7,91.9,272,96.5,275.2z"/>
			<path id="Path_1551" d="M138.6,181.4l-10.8,29l-14.1,37.9c-2.5,0.2-5,0-7.5-0.7c-2.5-0.9-5-2.1-7.2-3.5c0,0,3.9-40.7,11.2-64
				c1.9-6,4-10.8,6.3-13.6C127.8,153.1,138.6,181.4,138.6,181.4z"/>
			<path id="Path_1552" class="st18" d="M127.7,135.3c-7.1-2.3-28.4-0.9-48.6,3l-3.1-5.4l-43.7-3.4c0,0-14.4,32-6.5,52.4
				c1.2,3,3.5,4.9,7.4,5c0,0,0.6,0,0.6,0s26,0,34.5,0c21.7,0,46-14.9,49.2-15.6c5.1-1,7.2,9.3,12.3,20s48.3,47.8,48.3,47.8
				s6.6,0.1,9.4-1c1.5-0.5,2.9-1.4,4-2.5C191.4,235.6,143.6,140.5,127.7,135.3z"/>
			<path id="Path_1553" class="st15" d="M60.6,0.6C54.5-0.9,46.1,0.8,44.7,1C28.1,2.9,24.4,28.7,25.7,36c2.3,13.3-4.1,17-11.7,27.7
				c-15.3,21.3-4.7,38.9,7.7,43.2c7.5,2.6,17.6-4.5,17.6-4.5c0.2,0.1,26.4-25,39.4-37.1C100.4,56.3,76.3,4.3,60.6,0.6z"/>
			<path id="Path_1554" class="st14" d="M64.2,61.4c0.1,0-6.8,4.5-12.3,3.6c-5.2-0.9-10.8-7.7-10.7-7.7c2.1-0.6,4-3.1,2.7-15.9
				l1,0.1L61.6,43c0,0,0.1,5.2,0.6,10.1C62.6,57.2,63.2,61.1,64.2,61.4z"/>
			<path id="Path_1555" class="st17" d="M61.6,43c0,0,0.1,5.2,0.6,10.1c-9.2,0.7-14.9-7.2-17.4-11.7L61.6,43z"/>
			<path id="Path_1556" class="st14" d="M65.1,47.3c0,0-21.7,2.5-23.1-11S36.9,14,50.7,11.8s17,2.7,18.6,7.1S70.7,46.3,65.1,47.3z"
				/>
			<path id="Path_1557" class="st15" d="M66.7,12c0,0-10.5,15-19.4,18.3s-13.1,1.2-13.1,1.2c2.8-4.2,4.7-8.9,5.6-13.9
				c0.4-2.4,2.1-4.3,4.3-5.1C50.6,10.2,62.9,6.8,66.7,12z"/>
			<path id="Path_1558" class="st15" d="M58,13.1c0,0,5.6,3.2,7.8,6.1c2.2,2.8,4.5,10.1,4.1,13.3c0,0,3.5-15.4-2.1-21
				C61.9,5.5,58,13.1,58,13.1z"/>
			<path id="Path_1559" class="st13" d="M80.9,97.3c-0.7,43.9-0.2,34.7-5,38.9c-1.2,1-4.4,1.6-8.7,1.9c-13.4,0.9-37.1-1.3-38-3.8
				c-3.1-8.6-0.9-11.3-3.5-24.4c-0.3-1.4-0.6-2.9-1-4.6c-2.2-9-4.3-12.1,3.4-26.6C35.1,65.5,42.6,55,43.2,55.3
				c18.3,10.9,19.5,1.6,19.5,1.6S81.2,76,80.9,97.3z"/>
			<path id="Path_1560" class="st18" d="M127.8,210.4l-14.4,39.5c0,0-5.2,1.7-8.9,1.1c-2.2-0.3-4.3-1.2-5.9-2.7
				c0,0,4.4-45,11.7-68.3L127.8,210.4z"/>
			<path id="Path_1561" class="st13" d="M62.7,56.9c0,0,18.8,3.2,21.1,11.3s18.4,52.8,18.4,52.8s-12.7,4.7-17.2,0.3
				S69.6,80.3,69.6,80.3L62.7,56.9z"/>
			<path id="Path_1562" class="st22" d="M67.2,138.1c-13.4,0.9-37.1-1.3-38-3.8c-3.1-8.6-0.9-11.3-3.5-24.4l6.3-14.4
				c0,0-0.9,16.4,5.1,21.8s24.6,10.3,27.5,14.8C65.9,133.9,66.8,135.9,67.2,138.1z"/>
			<g id="Group_1554" transform="translate(49.544 124.573)">
				<path id="Path_1563" class="st14" d="M18.8,4.1c0,0,4,3.5,5.1,3.7c0.6,0.2,1.2,0.2,1.8,0l-2.9-3.4L18.8,4.1z"/>
				<path id="Path_1564" class="st14" d="M17.2,0.1l10.1,2.6c-0.3,0.5-0.8,0.9-1.4,0.9c-1.4,0-2.8-0.1-4.2-0.3L17.2,0.1z"/>
				<path id="Path_1565" class="st14" d="M0,5.7c0,0,14.5-6.4,17.2-5.6S26.9,4.6,28,6.2S22.3,6,20.1,5.8c-1.4-0.1-4.6,1.8-6.2,2.7
					C7.3,12.4,2.7,12,2.7,12L0,5.7z"/>
			</g>
			<path id="Path_1566" class="st13" d="M43.2,55.3c0,0-20.5,3.8-24.3,9.5c-8.3,12.4-25.9,63.7-16,70.6c11.1,7.8,50.6,2,50.6,2
				s1.3-6.1-0.5-9.1s-31.5-7.8-32.9-9.1s13.5-21.2,12-25C27,82.1,43.2,55.3,43.2,55.3z"/>
			<g id="Group_1555" transform="translate(122.383 128.052)">
				<path id="Path_1567" class="st14" d="M1.8,0c0,0,14.3,3.9,15.8,6.1s4.4,9,4.2,10.8s-4-3.5-5.5-4.9c-0.9-0.9-4.4-1.4-6.1-1.7
					C6,9.7,4,7.7,2.4,6.8C1.6,6.4,0.8,6.2,0,6.2L1.8,0z"/>
				<path id="Path_1568" class="st14" d="M16.4,10c0,0,0.9,4.9,1.5,5.8c0.3,0.5,0.8,0.8,1.3,1.1l-0.1-4.2L16.4,10z"/>
				<path id="Path_1569" class="st14" d="M17.6,6.1l5.8,7.9c-0.5,0.2-1.1,0.2-1.6-0.2c-1-0.8-2-1.7-2.9-2.7L17.6,6.1z"/>
				<path id="Path_1570" class="st14" d="M2.4,6.8c0,0,1.3,3.2,4,4.4s4.6,2.9,5,2.3s-2-3.9-2-3.9L2.4,6.8z"/>
			</g>
			<path id="Path_1571" class="st13" d="M98.4,110.5l30.1,19.1c0,0-3.2,4.2-4.2,4.6c-5.6,2-30.7,0.1-39.3-12.8L98.4,110.5z"/>
			<g id="Group_1557" transform="translate(55.62 129.759)">
				<path id="Path_1572" class="st23" d="M30.8,1.4c1.8,0,19.5-1.2,19.5-1.2S49.8,3.3,50.9,5L33.6,8.3l-3.5-1L30.8,1.4z"/>
				<g id="Group_1556">
					<path id="Path_1573" class="st24" d="M1.3,4.3l29.5-2.8c0,0-1,5.5,2.8,6.9L1.1,10.7C1.1,10.7-1.5,7,1.3,4.3z"/>
					<path id="Path_1574" class="st24" d="M50.3,0.6L30.3,2.1c0,0,0.1-0.7,0.5-0.7S50.6,0,50.6,0l-0.1,0.5L50.3,0.6z"/>
					<path id="Path_1575" class="st24" d="M33.6,8.3L51.2,5L51,4.5L32.3,8.1L33.6,8.3z"/>
				</g>
			</g>
		</g>
	</g>
	<g id="Group_1568" transform="translate(1005.822 768.656)">
		<g id="Group_1563" transform="translate(0 90.657)">
			<g id="Group_1560" transform="translate(46.453 105.433)">
				<path id="Path_1576" class="st7" d="M1.8,112.7H1.7c-0.9,0-1.7-0.8-1.7-1.7c0,0,0,0,0,0L2.5,0.9L10,0L3.6,111
					C3.6,111.9,2.8,112.7,1.8,112.7z"/>
			</g>
			<g id="Group_1561" transform="translate(3.105 105.433)">
				<path id="Path_1577" class="st7" d="M1.8,112.7H1.7c-0.9,0-1.7-0.8-1.7-1.7c0,0,0,0,0,0L2.5,0.9L10,0L3.6,111
					C3.6,111.9,2.8,112.7,1.8,112.7z"/>
			</g>
			<g id="Group_1562" transform="translate(116.406 105.433)">
				<path id="Path_1578" class="st7" d="M8.1,112.7h0.2c0.9,0,1.7-0.8,1.7-1.7c0,0,0,0,0,0L7.4,0.9L0,0l6.3,111
					C6.4,111.9,7.2,112.7,8.1,112.7z"/>
			</g>
			<path id="Path_1579" class="st7" d="M0,99.5V24C0,10.8,10.7,0,23.9,0c0,0,0,0,0,0h54c13.2,0,23.9,10.8,23.9,24c0,0,0,0,0,0v78.3
				L0,99.5z"/>
			<path id="Rectangle_264" class="st7" d="M0,99.5h111.5l0,0v11.9l0,0H11.9C5.3,111.4,0,106.1,0,99.5L0,99.5L0,99.5z"/>
			<path id="Rectangle_265" class="st7" d="M45.7,99.5h77.6c3.3,0,6,2.7,6,6l0,0c0,3.3-2.7,6-6,6H45.7c-3.3,0-6-2.7-6-6l0,0
				C39.8,102.1,42.4,99.5,45.7,99.5z"/>
		</g>
		<g id="Group_1567" transform="translate(23.635)">
			<path id="Path_1580" class="st23" d="M57.9,62.8c0,0-4.5,3.8-5.5,13.8c-0.7,7.6,4.5,66.4,8.5,71.1c11.1,13.2,25.1,7.6,30.5,9.6
				l5.2-4.6c0,0-18.1-13.4-19.5-17.7C71.8,118.1,75.1,69.1,57.9,62.8z"/>
			<path id="Path_1581" class="st25" d="M54.7,14.8c0,0,0.3-10.8-13.9-12.9S22.6,3.1,20.2,6.8s-7,18.4-6.5,24.3s16.7,13.2,16.4,16.6
				S54.7,14.8,54.7,14.8z"/>
			<path id="Path_1582" class="st14" d="M120.7,299.5c-0.5,3.6,4.5,4.7,10.3,5.2s4,1.7,11.9,3.4s11.2-0.3,11.8-1.4
				c0.5-0.9-3.1-2.6-7-4.5c-0.5-0.2-1-0.5-1.5-0.7c-4.4-2.1-6.7-6.3-10-10.2c-3.1-3.7-5.8-15.1-5.8-15.1l-10.7-2.7
				c0,0,2.7,10.3,3.6,14.7c0.5,2.6-0.5,5.4-1.4,7.6C121.3,297,120.9,298.2,120.7,299.5z"/>
			<path id="Path_1583" class="st15" d="M131,304.7c5.8,0.5,4,1.7,11.9,3.4s11.2-0.3,11.8-1.4c0.5-0.9-3.1-2.6-7-4.5l-0.1,0.1
				c-4,1-8.1,0.9-12-0.3c-5.2-1.6-10.2-5-13.8-6.2c-0.5,1.2-0.9,2.4-1.1,3.7C120.2,303.1,125.2,304.2,131,304.7z"/>
			<path id="Path_1584" d="M40.5,150.8c0,0,71.6,7.4,83.4,18.4s9.7,113,9.7,113c-1.8,1.9-3.2,1.9-6.1,1.6c-2.8-0.2-8.5-2.6-8.5-2.6
				s-15.3-50.1-15.5-61.7s-2.6-31.3-7.5-32.5s-62.8,5.3-69.2-13s4.2-33.4,4.2-33.4L40.5,150.8z"/>
			<path id="Path_1585" class="st23" d="M7.1,169.2c5.3,3.6,11.5,5.5,17.9,5.6c16.6,0.6,37.3-1.4,41.3-5.2c1.1-1,1.6-2.6,1.7-4.7
				c0.4-6.4-2.6-16.8-4.6-25.5c-1.3-5.6-2.2-10.5-1.5-13c2.2-7.6,9.2-23,9.8-28s-5.4-32.2-13.8-35.6s-40.6,0-40.6,0
				C4.7,65.3,4.2,92.2,8.4,115.1c0.1,0.6,0.2,1.2,0.3,1.8C13.2,140.1-1.5,163.5,7.1,169.2z"/>
			<g id="Group_1564" transform="translate(21.507 12.703)">
				<path id="Path_1586" class="st14" d="M27.2,55c-0.2,1.5-4.3,3.9-12.9,1.6c-8.3-2.2-9.3-4.9-9.3-6.6c0-2.1,3.6-4.9,3.5-17.9
					l1,0.2l16.7,3.3c0,0-0.4,5.2-0.4,10.2C25.9,49.9,27.6,52.6,27.2,55z"/>
				<path id="Path_1587" class="st17" d="M26.3,35.6c0,0-0.4,5.2-0.4,10.2C16.6,45.5,11.7,37,9.6,32.3L26.3,35.6z"/>
				<path id="Path_1588" class="st14" d="M29.4,40.3c0,0-22.1,0.4-22.1-13.4S4.5,3.9,18.6,3.1s16.8,4.4,17.9,9
					C37.6,16.7,35.2,39.8,29.4,40.3z"/>
				<path id="Path_1589" class="st25" d="M28.6,2.8c0,0-6,16.1-15.3,18.5S0,21.2,0,21.2c4.6-4,7.6-9.5,8.6-15.5
					C8.6,5.7,24-4.9,28.6,2.8z"/>
				<path id="Path_1590" class="st25" d="M27.1,4.1c0,0,4.5,3.6,5.6,7.1s1.6,10.7,3.7,10.5c0,0,4.5-11-0.6-17.2
					C30.4-2.1,27.1,4.1,27.1,4.1z"/>
			</g>
			<path id="Path_1591" class="st14" d="M66.9,302.5c-0.1,3.7,5,4.2,10.8,4s4.1,1.2,12.2,2s11-1.6,11.5-2.8c0.4-1-3.4-2.2-7.4-3.6
				c-0.5-0.2-1-0.4-1.5-0.5c-4.6-1.6-7.4-5.5-11.1-8.9c-3.5-3.3,4.3-19.2,4.3-19.2l-10.2-5.1c0,0-1.9,11.3-4.4,21.3
				c-0.6,2.6-2.7,6.8-3.4,9C67.2,299.9,67,301.2,66.9,302.5z"/>
			<path id="Path_1592" class="st26" d="M7.5,166.5c3.1,2.1,8.2,8,17.4,8.3c15.3-3.5,32.7-7.5,43.1-9.9c0.4-6.4-2.6-16.8-4.6-25.5
				c-12.1,3.7-30.1-8.9-36.1-13.8c-6.3-5.2-6.2-22.6-6.2-22.6L8.4,115.1c0.1,0.6,0.2,1.2,0.3,1.8C13.2,140.1-1.1,160.7,7.5,166.5z"
				/>
			<path id="Path_1593" class="st15" d="M77.7,306.5c5.8-0.2,4.1,1.2,12.2,2s11-1.6,11.5-2.8c0.4-1-3.4-2.2-7.4-3.6l-0.1,0.1
				c-3.8,1.5-8,1.8-12,1.1c-5.4-1-10.7-3.8-14.3-4.6c-0.4,1.2-0.6,2.5-0.7,3.8C66.9,306.1,71.9,306.6,77.7,306.5z"/>
			<path id="Path_1594" class="st18" d="M25.1,155.2c18.2-0.5,72.5,3.8,82.9,11.7c12.8,9.7-23.8,114.3-23.8,114.3
				c-1.9,0.2-3.7,0.3-5.6,0.3c-5.8-0.7-8.2-2.4-8.2-2.4s0.1-61.6,4.4-73.4c4-10.9,6.4-14.7,1.4-15.4s-66.9,7.2-72-11.4
				c-4-14.6,1.9-28.1,1.9-28.1S8.3,155.7,25.1,155.2z"/>
			<path id="Path_1595" class="st23" d="M17.3,62.8c0,0-12.6,1.1-13.6,11.1c-0.7,7.6-6.2,61.3-2.3,66c11.1,13.2,48.2,15.9,53.7,17.9
				l1.5-6.2c0,0-39.6-20-39-24.5S29.4,61,17.3,62.8z"/>
			<path id="Path_1596" class="st25" d="M27.1,7.3c0,0,0.9-5.8-7.1-7.2s-8.1,15.5-9,19.6s1.3,6.5,4.3,6.8S27.1,7.3,27.1,7.3z"/>
			<g id="Group_1565" transform="translate(53.677 146.7)">
				<path id="Path_1597" class="st14" d="M3.4,4.6c0,0,11.3-3.2,14-2.4S29.2,9,27.9,10.6s-9.4-1-13.1-0.5s-6.6,2.3-9.3,1.9
					c-1.9-0.3-3.7-0.8-5.5-1.5L3.4,4.6z"/>
				<path id="Path_1598" class="st14" d="M3.4,4.6c0,0,5.5-2.8,7.1-4.4c0.2-0.2,0.5-0.2,0.6,0c0,0,0,0.1,0.1,0.1
					C11.6,0.9,12,2.2,10,3.4C7.2,5.3,3.4,4.6,3.4,4.6z"/>
			</g>
			<g id="Group_1566" transform="translate(91.433 152.654)">
				<path id="Path_1599" class="st14" d="M5.2,0c0,0,11.7,0.6,14,2.2s9,10.3,7.3,11.5s-8.6-4-12.3-4.7S7.1,9,4.7,7.8
					C3.1,6.9,1.5,5.8,0,4.6L5.2,0z"/>
			</g>
		</g>
	</g>
	<g id="Group_1574" transform="translate(837.072 749.378)">
		<g id="Group_1569" transform="translate(40.847 0)">
			<path id="Path_1600" class="st27" d="M167.7,329h-47.6c-2.3-2.8-1.4-13.1-1.1-16.5c0.1-0.7,0.1-1.1,0.1-1.1s16.3-13,18.5-3
				c0.1,0.3,0.2,0.6,0.2,0.9c2.8,9.3,15.4,13.6,22.7,14.7C165.3,324.8,167.1,327.3,167.7,329z"/>
			<path id="Path_1601" d="M37.7,174.2c1.7,0,81.6,15,94.8,31.4c6.6,8.2,7.6,102.5,7.6,102.5s-8.2,10.1-25.8,4.2
				c0,0-12.9-64.6-12-84.1c0.3-5.4-54.6-0.8-64.6-3.4S3.2,200.4,8.6,189.8S37.7,174.2,37.7,174.2z"/>
			<path id="Path_1602" class="st14" d="M95.6,169.8c0,0,5.1,4.4,10.4,5.7c2.6,0.6,5.1,1.3,7.6,2.3c4.7,2.2,13.7,11.9,12.9,12.9
				c-2.7,3.1-13.5-5-15.6-4.4s3.4,5.3,1.2,6.5c-1.1,0.7-3.3-3.4-5.3-4c-2.7-0.8-4.5-4.8-5.3-5.1c-1.6-0.5-8.1-6.4-8.1-6.4
				L95.6,169.8z"/>
			<path id="Path_1603" class="st28" d="M188.8,329h-47.6c-2.3-2.8-1.4-13.1-1.1-16.5c0.1-0.7,0.1-1.1,0.1-1.1s16.3-13,18.5-3
				c0.1,0.3,0.2,0.6,0.2,0.9c2.8,9.3,15.4,13.6,22.7,14.7C186.4,324.8,188.1,327.3,188.8,329z"/>
			<path id="Path_1604" class="st18" d="M61.3,174.2c1.7,0,81.6,15,94.8,31.4c6.6,8.2,7.6,102.5,7.6,102.5s-8.2,10.1-25.8,4.2
				c0,0-12.9-64.6-12-84.1c0.3-5.4-54.6-0.8-64.6-3.4s-34.6-24.4-29.2-35.1S61.3,174.2,61.3,174.2z"/>
			<path id="Path_1605" class="st14" d="M56.3,77.2c-5.8-0.6-11.5-1.8-17-3.7c-6.5-2.1-11.8-5.2-8.4-11.1c3.1-5.5,8.2-17.7,7.8-27.9
				l12.1,9.8l8.2,6.6c-0.1,3.6-0.4,7.2-0.9,10.8c-0.2,1.2-0.4,2.6-0.6,4c-0.2,1.2,0.4,2.3,1.4,2.9l0.2,0.1c2.2,1.3,2.8,4.2,1.5,6.3
				C59.7,76.5,58,77.3,56.3,77.2z"/>
			<path id="Path_1606" class="st17" d="M59.1,49.2c0,0,0.4,1.4-0.3,6.7c-7.3-1.2-14.2-7-14.2-7c3.7-1,5.1-5.1,7.9-4.7L59.1,49.2z"
				/>
			<path id="Path_1607" class="st14" d="M65.9,50.4c0,0-28.2,4.7-30.9-12.9S26.9,8.6,44.8,4.9S67.2,7.3,69.6,13S73.1,48.7,65.9,50.4
				z"/>
			<path id="Path_1608" class="st29" d="M73.7,5.2c1.2,4.2-2,9.4-7.5,11.1c-8.1,2.5-6.3,12.4-9.9,12.3s-5.1-5.7-8.4-1.3
				c-2.8,3.8,2.3,8.3,2,10.4c-0.6,3.6-6.2,10.9-11.2,10.5S24.2,23.9,26.1,16.5S35.5,1.3,42.7,0.2s17,2,19.3,2S73.1,2.9,73.7,5.2z"/>
			<path id="Path_1609" class="st13" d="M80.7,169c-0.5,4.1-1.3,6.8-2.7,7.7c-4.2,2.8-9.8,6.3-16,9.8C40,198.8,9.7,210.7,3.6,189.9
				c-7.2-24.4-2.5-70.3,4.6-98.8c4.1-16.4,15.3-33.6,23-33.6c13,0,31.7,3.5,39.2,22c2.9,7.2,7.2,32.2,9.4,55
				C81.1,148.1,81.6,161,80.7,169z"/>
			<path id="Path_1610" class="st22" d="M29.9,57.6l2.9-6.6c0,0,26.1,2.7,30.5,17.6C63.3,68.6,43.1,57.9,29.9,57.6z"/>
			<path id="Path_1611" class="st22" d="M80.7,169c-0.5,4.1-1.3,6.8-2.7,7.7c-4.2,2.8-9.8,6.3-16,9.8c-6.5-3.9-19.8-13.4-22.9-24.5
				c-4.1-14.5-1.2-32.4-1.2-32.4L80.7,169z"/>
			<path id="Path_1612" class="st13" d="M35.1,80c0,0,2.3,62.4,5.8,74.7c6,21,61.2,28.5,61.2,28.5c2.1-2.8,2.8-6.4,1.8-9.8
				c0,0-33-26-34-31s7.2-38.5-2.1-50.7S41.4,69,35.1,80z"/>
		</g>
		<g id="Group_1573" transform="translate(0 103.703)">
			<g id="Group_1570" transform="translate(4.127 123.07)">
				<path id="Path_1613" class="st21" d="M2.7,101.6H2.5c-1.4,0-2.5-1.1-2.5-2.4c0-0.1,0-0.1,0-0.2L9.9,0l8.6,0.8L4.3,100.3
					C4.2,101.1,3.5,101.7,2.7,101.6z"/>
			</g>
			<g id="Group_1571" transform="translate(55.152 123.07)">
				<path id="Path_1614" class="st21" d="M2.7,101.6H2.5c-1.4,0-2.5-1.1-2.5-2.4c0-0.1,0-0.1,0-0.2L9.9,0l8.6,0.8L4.3,100.3
					C4.2,101.1,3.5,101.7,2.7,101.6z"/>
			</g>
			<g id="Group_1572" transform="translate(137.742 123.07)">
				<path id="Path_1615" class="st21" d="M15.9,101.6h0.2c1.4,0,2.5-1.1,2.5-2.4c0-0.1,0-0.1,0-0.2L8.7,0L0,0.8l14.2,99.5
					C14.4,101.1,15.1,101.7,15.9,101.6z"/>
			</g>
			<path id="Path_1616" class="st21" d="M9.6,109L0.2,26.4C-1,14.4,3,2.8,20.2,1.9L50.4,0c17.9-0.7,26,14.2,28.3,25.7l18,90.9
				L9.6,109z"/>
			<path id="Rectangle_266" class="st21" d="M145.9,124.5H17.7c-4.4,0-7.9-3.5-7.9-7.9v-7.9l0,0h136.1c4.4,0,7.9,3.5,7.9,7.9
				c0,0,0,0,0,0l0,0C153.8,121,150.3,124.5,145.9,124.5C145.9,124.5,145.9,124.5,145.9,124.5z"/>
			<path id="Rectangle_267" class="st21" d="M88.7,124.5h-71c-4.4,0-7.9-3.5-7.9-7.9c0,0,0,0,0,0v-7.9l0,0h79c4.4,0,7.9,3.5,7.9,7.9
				c0,0,0,0,0,0l0,0C96.7,121,93.1,124.5,88.7,124.5C88.7,124.5,88.7,124.5,88.7,124.5z"/>
		</g>
	</g>
	<path id="Path_1744" class="st30" d="M1546.3,418.9h-145.6l-444.6,659.2h1022.2L1546.3,418.9z"/>
	<g id="Group_1662" transform="translate(1714.954 323.007)">
		<g id="Group_1648" transform="translate(13.688 4.425)">
			<g id="Group_1639" transform="translate(0 0)">
				<g id="Group_1638" transform="translate(0)">
					<g id="Group_1637">
						<g id="Group_1636">
							<ellipse id="Ellipse_24" class="st31" cx="28.4" cy="28.4" rx="24.7" ry="24.7"/>
						</g>
					</g>
				</g>
			</g>
			<g id="Group_1643" transform="translate(31.592 32.062)" class="st32">
				<g id="Group_1642" transform="translate(0)">
					<g id="Group_1641">
						<g id="Group_1640">
							<path id="Path_1651" class="st13" d="M0,4c0,2.2,1.8,4,4,4c2.2,0,4-1.8,4-4c0-2.2-1.8-4-4-4c0,0,0,0,0,0C1.8,0,0,1.8,0,4z"/>
						</g>
					</g>
				</g>
			</g>
			<g id="Group_1647" transform="translate(37.309 22.115)" class="st32">
				<g id="Group_1646" transform="translate(0)">
					<g id="Group_1645" transform="translate(0)">
						<g id="Group_1644">
							<path id="Path_1652" class="st13" d="M0,2.3c0,1.3,1.1,2.3,2.3,2.3c1.3,0,2.3-1.1,2.3-2.3C4.7,1,3.6,0,2.3,0C1.1,0,0,1,0,2.3
								C0,2.3,0,2.3,0,2.3z"/>
						</g>
					</g>
				</g>
			</g>
		</g>
		<g id="Group_1652" transform="translate(0 0)">
			<g id="Group_1651">
				<g id="Group_1650">
					<g id="Group_1649">
						<path id="Path_1653" class="st9" d="M66,38.8C65.9,39.2,87.2,59.6,81.7,64s-28.5-6.8-48.2-22.7S-4.1,6.2,0.8,1.1
							c4.9-5.1,29.5,10,29.5,10l-2.9,1.9c0,0-14.9-9.5-19.6-5.8S16.5,25.2,35.4,39s37.2,23.5,40,19.7S64.9,42.4,64.9,42.4L66,38.8z"
							/>
					</g>
				</g>
			</g>
		</g>
		<g id="Group_1656" transform="translate(0 0)" class="st32">
			<g id="Group_1655">
				<g id="Group_1654">
					<path id="Path_1654" d="M66,38.8C65.9,39.2,87.2,59.6,81.7,64s-28.5-6.8-48.2-22.7S-4.1,6.2,0.8,1.1c4.9-5.1,29.5,10,29.5,10
						l-2.9,1.9c0,0-14.9-9.5-19.6-5.8S16.5,25.2,35.4,39s37.2,23.5,40,19.7S64.9,42.4,64.9,42.4L66,38.8z"/>
				</g>
			</g>
		</g>
		<g id="Group_1661" transform="translate(55.671 15.373)" class="st32">
			<g id="Group_1660" transform="translate(0)">
				<g id="Group_1659" transform="translate(0)">
					<g id="Group_1658">
						<g id="Group_1657">
							<path id="Path_1655" class="st13" d="M0,0c-0.2,0.2,1.5,1.7,3.4,4.5c5.1,7.5,5.3,17.3,0.5,25c-1.8,2.9-3.4,4.4-3.2,4.6
								c0.1,0.2,2.1-1,4.3-3.9c1.3-1.7,2.3-3.6,3-5.6c1.8-5,1.7-10.5-0.3-15.4c-0.8-2-1.9-3.8-3.2-5.5C2.2,0.9,0.1-0.2,0,0z"/>
						</g>
					</g>
				</g>
			</g>
		</g>
	</g>
	<g id="Group_1679" transform="translate(789.234 427.764)">
		<g id="Group_1666" transform="translate(0 0)">
			<g id="Group_1665">
				<g id="Group_1664">
					<g id="Group_1663">
						<path id="Path_1656" class="st7" d="M0,14C0.2,6.1,6.8-0.2,14.7,0c7.9,0.2,14.2,6.8,14,14.7s-6.8,14.2-14.7,14c0,0,0,0,0,0
							C6.1,28.5-0.2,21.9,0,14z"/>
					</g>
				</g>
			</g>
		</g>
		<g id="Group_1670" transform="translate(19.03 6.571)" class="st33">
			<g id="Group_1669">
				<g id="Group_1668">
					<g id="Group_1667">
						<path id="Path_1657" d="M0,2.3C0,1,1.1,0,2.4,0s2.3,1.1,2.3,2.4c0,1.3-1.1,2.3-2.4,2.3c0,0,0,0,0,0C1,4.7,0,3.6,0,2.3z"/>
					</g>
				</g>
			</g>
		</g>
		<g id="Group_1674" transform="translate(23.713 12.992)" class="st33">
			<g id="Group_1673">
				<g id="Group_1672">
					<g id="Group_1671">
						<path id="Path_1658" d="M0,1.3C0,0.6,0.6,0,1.4,0c0.8,0,1.3,0.6,1.3,1.4c0,0.8-0.6,1.3-1.4,1.3c0,0,0,0,0,0
							C0.6,2.7,0,2.1,0,1.3z"/>
					</g>
				</g>
			</g>
		</g>
		<g id="Group_1678" transform="translate(21.371 18.504)" class="st33">
			<g id="Group_1677">
				<g id="Group_1676">
					<g id="Group_1675">
						<path id="Path_1659" d="M0.5,0C0.8,0,1,0.2,1,0.5C1,0.8,0.8,1,0.5,1C0.2,1,0,0.8,0,0.5C0,0.2,0.2,0,0.5,0C0.5,0,0.5,0,0.5,0z"
							/>
					</g>
				</g>
			</g>
		</g>
	</g>
	<g id="Group_1716" transform="translate(1015.859 263.955)">
		<g id="Group_1681" transform="translate(17.171 32.482)">
			<g id="Group_1680">
				<path id="Path_1660" class="st13" d="M0.5,203.2c-0.3,0-0.5-45.5-0.5-101.6C0,45.5,0.2,0,0.5,0s0.5,45.5,0.5,101.6
					C1.1,157.7,0.8,203.2,0.5,203.2z"/>
			</g>
		</g>
		<g id="Group_1683" transform="translate(11.831 20.915)">
			<g id="Group_1682">
				<path id="Path_1661" class="st13" d="M12,13.3c-0.3,0.1-3.3-5.1-6.9-11.8l1-0.1L5.9,1.7C2.9,8.8,0.3,14.5,0,14.4s1.9-6,4.9-13.1
					L5,1.1L5.5,0L6,1C9.6,7.7,12.2,13.2,12,13.3z"/>
			</g>
		</g>
		<g id="Group_1685" transform="translate(11.929 1.528)">
			<g id="Group_1684">
				<path id="Path_1662" class="st13" d="M4.7,7C4.5,7.2,2.8,6.1,1.5,4.1s-1.7-4-1.4-4.1c0.3-0.1,1.1,1.6,2.3,3.5
					C3.6,5.4,4.9,6.7,4.7,7z"/>
			</g>
		</g>
		<g id="Group_1687" transform="translate(13.358)">
			<g id="Group_1686">
				<path id="Path_1663" class="st13" d="M0,14.3c-0.3-0.1,1.1-3.3,2.6-7.2s2.7-7.2,3-7.1c0.3,0.1-0.4,3.5-1.9,7.5S0.3,14.5,0,14.3z
					"/>
			</g>
		</g>
		<g id="Group_1689" transform="translate(3.134 46.483)">
			<g id="Group_1688">
				<path id="Path_1664" class="st13" d="M0,12.8c-0.3-0.2,1.3-2.7,1.9-6.2C2.5,3,1.7,0.1,2,0C2.3-0.1,3.6,2.9,3,6.7
					C2.4,10.5,0.2,13,0,12.8z"/>
			</g>
		</g>
		<g id="Group_1691" transform="translate(0 45.936)">
			<g id="Group_1690">
				<path id="Path_1665" class="st13" d="M5.2,4.8c0.1,0-0.3,0.9-1.5,1.2C2,6.4,0.3,5.3,0,3.7C-0.4,2,0.7,0.4,2.3,0.1
					C2.6,0,3,0,3.3,0c1.3,0.2,1.8,1,1.7,1C4.9,1.2,4.3,0.7,3.3,0.8c-1.2,0-2.2,1-2.2,2.3c0,1.2,1,2.2,2.3,2.2c0.1,0,0.1,0,0.2,0
					C4.5,5.2,5,4.7,5.2,4.8z"/>
			</g>
		</g>
		<g id="Group_1693" transform="translate(2.047 220.691)">
			<g id="Group_1692">
				<path id="Path_1666" class="st13" d="M173.8,0.5c0,0.3-38.9,0.5-86.9,0.5S0,0.8,0,0.5S38.9,0,86.9,0S173.8,0.2,173.8,0.5z"/>
			</g>
		</g>
		<g id="Group_1695" transform="translate(163.746 215.42)">
			<g id="Group_1694">
				<path id="Path_1667" class="st13" d="M13.9,5.6c-0.1,0.3-3.3-0.7-7.2-2.3S-0.1,0.3,0,0s3.3,0.7,7.2,2.3S14,5.3,13.9,5.6z"/>
			</g>
		</g>
		<g id="Group_1697" transform="translate(167.7 221.599)">
			<g id="Group_1696">
				<path id="Path_1668" class="st13" d="M11.9,0.1C12,0.3,9.4,1.5,6.1,2.7S0.1,4.5,0,4.2s2.5-1.4,5.8-2.6S11.8-0.2,11.9,0.1z"/>
			</g>
		</g>
		<g id="Group_1699" transform="translate(3.906 226.751)">
			<g id="Group_1698">
				<path id="Path_1669" class="st13" d="M5.6,0c0-0.1,1.6,0.9,2.2,3.6c0.4,1.6,0.3,3.2-0.3,4.7c-0.4,0.9-1,1.7-1.7,2.4
					c-1,0.7-2.3,0.8-3.3,0.1C0.8,9.6-0.1,7.6,0,5.5c-0.1-1.7,0.7-3.3,1.9-4.4c0.9-0.7,1.9-1.1,3.1-1c0.8,0.1,1.1,0.3,1.1,0.4
					c0,0.1-0.4,0-1.1,0C4,0.7,3.1,1.1,2.4,1.8c-1,1-1.5,2.4-1.4,3.8c0,1.7,0.7,3.3,2.1,4.4c0.7,0.4,1.5,0.4,2.1-0.1
					c0.6-0.5,1.1-1.1,1.4-1.9c0.6-1.3,0.7-2.8,0.5-4.2C6.7,1.3,5.5,0.1,5.6,0z"/>
			</g>
		</g>
		<g id="Group_1701" transform="translate(146.381 228.625)">
			<g id="Group_1700">
				<path id="Path_1670" class="st13" d="M4.7,0.4c-0.1,0,0.6-0.4,1.5,0.3c0.5,0.4,0.8,1.1,0.7,1.7c-0.1,0.8-0.4,1.6-1,2.2
					C4.7,6.1,2.4,6.6,1.4,8.2c-0.5,0.9-0.5,1.9,0,2.8C2,12,3,12.5,4.1,12.4c1.1-0.1,2-0.8,2.3-1.9c0.3-1,0.1-2-0.6-2.8
					C5.1,7,4.4,6.3,3.5,5.9c-1-0.4-1.7-1.2-2.1-2.1C1.2,2.9,1.4,2,1.9,1.3c0.4-0.5,0.9-0.9,1.5-1.1C4.3-0.1,4.9,0,4.9,0
					c0,0.1-0.5,0.2-1.3,0.6c-0.5,0.3-0.9,0.6-1.2,1C2.1,2.2,2,2.9,2.1,3.6C2.5,4.9,5,5.1,6.6,7.1c0.9,1,1.2,2.4,0.8,3.7
					c-0.4,1.4-1.7,2.4-3.2,2.6c-1.5,0.2-2.9-0.6-3.7-1.9c-0.7-1.2-0.7-2.7,0-3.8c0.7-0.9,1.6-1.7,2.6-2.1c0.8-0.4,1.5-0.9,2.2-1.4
					c0.5-0.4,0.9-1.1,1-1.7c0.1-0.5-0.1-1-0.4-1.4C5.3,0.4,4.7,0.5,4.7,0.4z"/>
			</g>
		</g>
		<g id="Group_1703" transform="translate(150.05 215.365)">
			<g id="Group_1702">
				<path id="Path_1671" class="st13" d="M0.5,9.6C0.2,9.6,0,7.5,0,4.8S0.2,0,0.5,0s0.5,2.1,0.5,4.8S0.8,9.6,0.5,9.6z"/>
			</g>
		</g>
		<g id="Group_1705" transform="translate(189.555 212.628)">
			<g id="Group_1704">
				<path id="Path_1672" class="st13" d="M7.5,8.8c0,0.1-1.1,0.3-3,0.5L1.3,9.5c-0.3,0-0.5,0-0.7-0.1c-0.3-0.2-0.5-0.6-0.4-1
					c0.1-0.4,0.4-0.8,0.7-1l1.4-1.5C3.3,5.1,3.9,4,4,2.8c0.1-0.9-0.5-1.7-1.3-2C2,0.7,1.4,0.8,0.8,1.1C0.3,1.3,0,1.4,0,1.4
					s0.1-0.3,0.6-0.6C1.2,0.2,2,0,2.8,0C4.1,0.3,5.1,1.4,5,2.8C4.9,4.3,4.2,5.6,3.1,6.6c-0.5,0.5-1,1-1.5,1.5
					C1.4,8.3,1.2,8.5,1.2,8.6c0.1,0-0.2,0-0.2,0c0,0,0,0,0,0l0.1-0.1l0,0c0.1,0,0.1,0,0.2,0l3.3,0C6.4,8.6,7.5,8.7,7.5,8.8z"/>
			</g>
		</g>
		<g id="Group_1707" transform="translate(30.169 182.933)">
			<g id="Group_1706">
				<path id="Path_1673" class="st13" d="M10.7,38.3c-0.1-1-0.1-2-0.1-3c0-2-0.1-4.7-0.2-8c-0.1-6.8-0.2-16.1-0.2-26.8l0.5,0.5
					c-3.2,0-6.6,0-10.1,0C1.7,0,0.9,0.8,1.1,0.6V2v1.4v2.8c0,1.9,0,3.7,0,5.5c0,3.6,0,7,0,10.2C1,28.3,1,33.9,0.9,38.3L0.6,38
					c3,0.1,5.5,0.1,7.3,0.2C9.7,38.2,10.7,38.3,10.7,38.3c-0.8,0.1-1.7,0.2-2.6,0.1c-1.9,0-4.4,0.1-7.5,0.2l-0.3,0v-0.3
					c0-4.4-0.1-10-0.2-16.3c0-3.2,0-6.7,0-10.2c0-1.8,0-3.6,0-5.5c0-0.9,0-1.9,0-2.8V0.6C0.3,0.3-0.5,1.1,0.6,0c3.5,0,6.9,0,10.1,0
					h0.5v0.5c0,10.9-0.1,20.4-0.2,27.2c-0.1,3.2-0.1,5.9-0.2,7.9C10.9,36.5,10.8,37.4,10.7,38.3z"/>
			</g>
		</g>
		<g id="Group_1709" transform="translate(126.322 165.651)">
			<g id="Group_1708">
				<path id="Path_1674" class="st13" d="M10.7,55.6c-0.1-0.4-0.1-0.8-0.1-1.2c0-0.8,0-1.9-0.1-3.2c0-2.9-0.1-6.8-0.2-11.7
					c-0.1-9.9-0.2-23.5-0.2-39l0.5,0.5l-10.1,0C1.7,0,0.9,0.8,1.1,0.6v1.1v1.1v2.2c0,1.4,0,2.8,0,4.2c0,2.8,0,5.6,0,8.2
					c0,5.4,0,10.4-0.1,15.2C1,41.9,0.9,49.8,0.9,55.6l-0.3-0.3c3.1,0.1,5.6,0.1,7.4,0.2l2,0.1C10.2,55.5,10.5,55.6,10.7,55.6
					c-0.8,0.1-1.7,0.1-2.5,0.1c-1.9,0-4.4,0.1-7.6,0.2l-0.3,0v-0.3c0-5.8-0.1-13.7-0.2-23.1c0-4.7,0-9.8-0.1-15.2c0-2.7,0-5.4,0-8.2
					c0-1.4,0-2.8,0-4.2V0.6C0.3,0.3-0.5,1.1,0.6,0c3.5,0,6.9,0,10.1,0h0.5v0.5c0,15.7-0.1,29.6-0.2,39.4c-0.1,4.8-0.1,8.7-0.2,11.5
					c0,1.2-0.1,2.3-0.1,3.1C10.8,54.9,10.8,55.3,10.7,55.6z"/>
			</g>
		</g>
		<g id="Group_1711" transform="translate(54.473 152.106)">
			<g id="Group_1710">
				<path id="Path_1675" class="st13" d="M10.7,69.1c-0.1-0.5-0.1-1-0.1-1.4c0-1,0-2.3-0.1-4c0-3.5-0.1-8.5-0.2-14.6
					c-0.1-12.4-0.1-29.4-0.2-48.6l0.5,0.5c-3.2,0-6.6,0-10.1,0C1.7,0,0.9,0.8,1.1,0.6v5.5c0,1.8,0,3.6,0,5.4c0,3.6,0,7.1,0,10.5
					c0,6.8,0,13.2-0.1,19.1C1,52.8,0.9,62.4,0.9,69.1l-0.3-0.3C3.8,68.9,6.2,69,8,69c0.8,0,1.4,0,2,0.1
					C10.2,69.1,10.5,69.1,10.7,69.1c-0.2,0-0.4,0.1-0.6,0.1c-0.5,0-1.1,0-1.9,0.1c-1.8,0-4.4,0.1-7.6,0.1H0.3v-0.3
					c0-6.7-0.1-16.4-0.2-28.1c0-5.9,0-12.3-0.1-19.1c0-3.4,0-6.9,0-10.5V6.1V0.6C0.3,0.3-0.5,1.1,0.6,0c3.5,0,6.9,0,10.1,0h0.5v0.5
					c-0.1,19.4-0.2,36.6-0.2,49c-0.1,6-0.1,10.9-0.2,14.4c0,1.6-0.1,2.9-0.1,3.9C10.8,68.3,10.8,68.7,10.7,69.1z"/>
			</g>
		</g>
		<g id="Group_1713" transform="translate(78.269 114.206)">
			<g id="Group_1712">
				<path id="Path_1676" class="st13" d="M10.7,106.8c0-0.2,0-0.4,0-0.6l0-1.6c0-1.5,0-3.5-0.1-6.2c0-5.4-0.1-13.1-0.2-22.6
					c-0.1-19.1-0.1-45.6-0.2-75.3l0.5,0.5c-3.2,0-6.6,0-10.1,0C1.7,0,0.9,0.8,1.1,0.6V5c0,1.5,0,2.9,0,4.4c0,2.9,0,5.8,0,8.6
					c0,5.7,0,11.3,0,16.7c0,10.8,0,20.9-0.1,30.1c-0.1,18.3-0.2,33-0.2,42.1l-0.2-0.2l7.4,0.1c0.8,0,1.5,0,2,0.1
					C10.2,106.8,10.5,106.8,10.7,106.8c-0.2,0-0.4,0-0.6,0c-0.5,0-1.1,0-1.9,0.1L0.6,107H0.4v-0.2c0-9.1-0.1-23.8-0.2-42.1
					c0-9.2,0-19.3-0.1-30.1c0-5.4,0-11,0-16.7c0-2.8,0-5.7,0-8.6V5V0.6C0.3,0.3-0.5,1.1,0.6,0c3.5,0,6.9,0,10.1,0h0.5v0.5
					C11.2,30.4,11.1,57,11,76.2c-0.1,9.5-0.1,17.1-0.2,22.5c0,2.6-0.1,4.6-0.1,6l0,1.5C10.7,106.5,10.7,106.7,10.7,106.8z"/>
			</g>
		</g>
		<g id="Group_1715" transform="translate(102.642 41.078)">
			<g id="Group_1714">
				<path id="Path_1677" class="st13" d="M10.7,179.9c0,0,0-0.3,0-1c0-0.7,0-1.6,0-2.7c0-2.4,0-5.9-0.1-10.4
					c0-9.1-0.1-22.1-0.2-38.3c-0.1-32.3-0.1-77.1-0.2-127l0.5,0.5H0.6C1.7,0,0.9,0.8,1.1,0.6v15.6c0,5.2,0,10.2,0,15.3
					c0,10.1,0,19.8,0,29.3c0,18.9-0.1,36.4-0.1,52.1c-0.1,31.3-0.2,55-0.3,67.1l-0.2-0.2c3.4,0,5.9,0.1,7.6,0.1l1.9,0
					C10.3,179.9,10.5,179.9,10.7,179.9c-0.2,0-0.4,0-0.6,0l-1.8,0c-1.7,0-4.3,0.1-7.7,0.1H0.4v-0.2c0-12.1-0.1-35.8-0.3-67.1
					c0-15.7,0-33.2-0.1-52.1c0-9.5,0-19.2,0-29.3c0-5,0-10.1,0-15.3V0.6C0.3,0.3-0.5,1.1,0.6,0c3.5,0,6.9,0,10.1,0h0.5v0.5
					c-0.1,50.1-0.2,95-0.2,127.4c-0.1,16.1-0.1,29.1-0.2,38.2c0,4.4-0.1,7.9-0.1,10.3c0,1.1,0,2,0,2.7
					C10.7,179.4,10.7,179.7,10.7,179.9z"/>
			</g>
		</g>
	</g>
	<g id="Group_1827" transform="translate(1339.375 644.93)">
		<g id="Group_1811" transform="translate(0 0)">
			<g id="Group_1810">
				<path id="Path_1723" class="st13" d="M96.1,7.2c0,0,0.3,0.1,1,0.3s1.6,0.5,2.8,1c9.3,3.7,17.4,9.8,23.5,17.6
					c5,6.3,8.5,13.8,10,21.8c1.7,9.7,0.4,19.7-3.7,28.7c-2.3,5-5.4,9.5-9.3,13.4c-2,2-4.3,3.8-6.7,5.4c-1.3,0.7-2.5,1.5-3.8,2.2
					c-1.3,0.6-2.6,1.3-4,1.8c-11.1,4.4-23.9,4.6-36.6,3.4c-6.4-0.6-12.9-1.5-19.4-2.6c-6.7-1-13.2-2.5-19.7-4.6
					c-6.5-2.1-12.5-5.4-17.6-9.9C10.2,83.3,8,80.8,6.2,78c-1.7-2.8-3.1-5.8-4.1-8.9C0.2,63-0.4,56.6,0.2,50.3
					c0.7-6.1,2.4-12,5.2-17.4C11,22.3,19.9,14.6,29.1,9.6C37.7,5,47.1,2,56.8,0.8c8-1,16.1-1,24-0.1c6,0.6,12,1.6,17.9,2.9
					c4.9,1.1,8.6,2.1,11.1,2.8l2.9,0.8c0.6,0.2,1,0.3,1,0.3s-0.3-0.1-1-0.2l-2.9-0.7c-2.5-0.6-6.3-1.6-11.2-2.6
					c-5.9-1.3-11.9-2.2-17.9-2.8c-8-0.8-16-0.7-23.9,0.3C47.2,2.6,38,5.7,29.4,10.3c-9.1,5-17.8,12.6-23.3,23
					c-2.7,5.3-4.4,11.1-5,17.1c-0.6,6.2,0,12.5,1.9,18.4c1,3,2.3,5.9,4,8.7c1.8,2.7,3.9,5.2,6.3,7.4c5,4.4,10.9,7.7,17.3,9.7
					c6.4,2.1,12.9,3.6,19.5,4.5c6.5,1,13,1.9,19.3,2.6c12.6,1.2,25.3,1,36.2-3.3c10.4-4,18.8-12,23.4-22.2
					c4.1-8.8,5.4-18.6,3.8-28.2c-1.5-7.9-4.8-15.3-9.7-21.5c-3.7-4.8-8.1-8.9-13.1-12.3c-3.2-2.1-6.5-4-10-5.4
					c-1.2-0.5-2.2-0.8-2.8-1.1S96.1,7.2,96.1,7.2z"/>
			</g>
		</g>
		<g id="Group_1826" transform="translate(18.933 22.298)">
			<g id="Group_1813" transform="translate(0 16.217)">
				<g id="Group_1812">
					<path id="Path_1724" class="st13" d="M13.5,30.4c-0.6,0.2-1.3,0.2-1.9,0.2c-1.3,0.1-3.1,0.2-5.3,0.3c-0.6,0-1.2,0-1.8,0.1
						c-0.7,0.1-1.4,0-2-0.1c-0.4-0.1-0.8-0.4-1-0.8c-0.2-0.4-0.3-0.8-0.3-1.2L1,26.7c-0.2-3-0.4-6.2-0.6-9.6C0.3,13.6,0,10.4,0,7.4
						c0-1.5,0.3-2.9,1-4.3c0.7-1.1,1.7-2,2.9-2.5c1.7-0.6,3.6-0.8,5.4-0.6c0.7,0,1.3,0.1,1.9,0.3c-0.6,0.1-1.3,0.1-2,0
						C7.5,0.4,5.8,0.7,4.2,1.3C3.1,1.7,2.3,2.5,1.7,3.5C1.1,4.7,0.8,6.1,0.9,7.4c0.1,2.9,0.3,6.2,0.5,9.6s0.3,6.7,0.5,9.6
						c0.1,1.4-0.2,3.2,0.8,3.4c0.6,0.1,1.2,0.1,1.8,0.1c0.6,0,1.2,0,1.8,0c2.2,0,4.1,0,5.3,0C12.2,30.2,12.9,30.2,13.5,30.4z"/>
				</g>
			</g>
			<g id="Group_1815" transform="translate(0.876 30.562)">
				<g id="Group_1814">
					<path id="Path_1725" class="st13" d="M9.9,0.4c0,0.3-2.2,0.5-5,0.6C2.2,1,0,0.9,0,0.6S2.2,0.1,5,0S9.9,0.1,9.9,0.4z"/>
				</g>
			</g>
			<g id="Group_1817" transform="translate(20.54 25.93)">
				<g id="Group_1816">
					<path id="Path_1726" class="st13" d="M15.1,0.6c0,0.3-3.4,0.2-7.5,0.4S0,1.3,0,1.1c0-0.3,3.3-0.9,7.5-1S15.1,0.3,15.1,0.6z"/>
				</g>
			</g>
			<g id="Group_1819" transform="translate(22.191 37.39)">
				<g id="Group_1818">
					<path id="Path_1727" class="st13" d="M14.9,0.5c0,0.3-3.3,0.6-7.5,0.5S0,0.4,0,0.2S3.4,0,7.5,0.1S14.9,0.3,14.9,0.5z"/>
				</g>
			</g>
			<g id="Group_1821" transform="translate(54.285 26.545)">
				<g id="Group_1820">
					<path id="Path_1728" class="st13" d="M22.9,18.2c-0.1,0,0-1-0.1-2.9c-0.1-2.7-0.6-5.3-1.4-7.8c-0.6-1.6-1.2-3.5-2.8-4.5
						c-0.8-0.5-1.9-0.4-2.6,0.2c-0.9,0.6-1.5,1.5-2,2.5c-2.1,4.1-2.4,9.3-2.4,14.8l-0.9,0c0.3-3.7,0.2-7.3-0.1-11
						c-0.1-1.5-0.3-3-0.6-4.4C9.7,3.6,9,2.4,8,1.5c-1-0.8-2.4-0.8-3.5-0.1c-1.1,0.7-1.8,1.8-2.2,3C2,5.7,1.7,7,1.6,8.2
						C1.5,9.5,1.4,10.7,1.3,12c-0.1,2.3-0.1,4.5,0,6.8l-0.7,0C0.4,13.4,0.2,9,0.1,5.8C0.1,4.4,0,3.2,0,2.3c0-0.4,0-0.8,0-1.2
						c0.1,0.4,0.2,0.8,0.2,1.2l0.3,3.5C0.7,9,1,13.4,1.3,18.8l-0.7,0c-0.2-2.3-0.2-4.6-0.1-6.9c0.1-1.2,0.1-2.5,0.3-3.8
						c0.1-1.3,0.3-2.7,0.7-4C1.8,2.7,2.7,1.5,4,0.7C4.7,0.2,5.4,0,6.2,0c0.8,0,1.6,0.3,2.3,0.8c1.2,1,2.1,2.4,2.4,4
						c0.3,1.5,0.5,3,0.7,4.5c0.4,3.7,0.4,7.4,0.1,11.1l-0.9,0c0.1-5.5,0.4-10.9,2.6-15.2c0.5-1.1,1.3-2,2.3-2.7
						c1-0.7,2.3-0.8,3.4-0.2c1.9,1.3,2.4,3.4,3,4.9c0.8,2.6,1.2,5.3,1.2,8c0,0.7,0,1.5-0.1,2.2C23.1,17.7,23,18,22.9,18.2z"/>
				</g>
			</g>
			<g id="Group_1823" transform="translate(83.541 26.138)">
				<g id="Group_1822">
					<path id="Path_1729" class="st13" d="M14.6,17.1c0,0-0.3,0.4-1.1,0.8c-1.2,0.6-2.4,0.9-3.7,0.9c-1.9,0.1-3.8-0.5-5.5-1.5
						C0.1,14.6-1.2,9.1,1.2,4.7c1-1.7,2.4-3,4.2-3.8C6.5,0.3,7.8,0,9.1,0c0.5,0,0.9,0,1.4,0.2C8.8,0.3,7.2,0.8,5.7,1.5
						C4.1,2.3,2.8,3.6,2,5.2c-2.1,4-0.9,8.9,2.8,11.5c1.5,1,3.2,1.5,5,1.6C12.8,18.2,14.5,16.9,14.6,17.1z"/>
				</g>
			</g>
			<g id="Group_1825" transform="translate(91.068)">
				<g id="Group_1824">
					<path id="Path_1730" class="st13" d="M12.7,16.2c0,0.3-4.5-0.1-10.6,1.8l-1.6,0.5l1.2-1.2C4,15.3,6,12.8,7.6,10.2
						c1.3-2.2,1.7-4.8,1.2-7.3c-0.3-1.1-0.9-2-1.8-2C6,0.8,5.1,1.1,4.3,1.5C3,2.2,1.9,3.1,1,4.2C0.7,4.6,0.4,5,0,5.4
						c0.1-0.5,0.3-1,0.7-1.5c0.8-1.3,2-2.3,3.3-3C4.9,0.4,5.9,0,7,0c0.7,0,1.3,0.3,1.8,0.8c0.4,0.5,0.7,1.1,0.9,1.8
						c0.6,2.7,0.1,5.6-1.3,8c-1.7,2.8-3.7,5.3-6.2,7.4l-0.4-0.7C4.4,16.5,7,16.1,9.7,16C10.7,15.9,11.7,16,12.7,16.2z"/>
				</g>
			</g>
		</g>
	</g>
	<g id="Group_1597" transform="matrix(0.454, 0.891, -0.891, 0.454, 1816.102, 498.836)">
		<g id="Group_1583" transform="translate(0 16.42)">
			<path id="Path_1627" class="st13" d="M0,0c0.1,0.1,0.1,0.3,0.1,0.4l0.3,1.2c0.2,0.7,0.4,1.4,0.6,2c0.3,0.9,0.6,1.8,1,2.7
				c0.2,0.5,0.4,1,0.7,1.6C3.1,8.4,3.4,9,3.7,9.6c0.3,0.6,0.7,1.2,1,1.8c0.4,0.6,0.7,1.3,1.2,1.9c2,2.9,4.3,5.5,6.9,7.7
				c3.2,2.8,6.8,5,10.7,6.6c2.2,0.9,4.4,1.6,6.7,2.1c2.4,0.5,4.9,0.8,7.4,1c5.1,0.5,10.5,0.8,15.8,2.9s9.8,5.9,13.8,10.3
				c4,4.2,7.2,9.1,9.5,14.4c1,2.6,1.7,5.3,1.9,8c0.2,2.6,0,5.3-0.5,7.9c-1,4.7-2.4,9.4-4.2,13.9c-1.5,3.9-2.6,8-3.3,12.2
				c-0.6,3.4-0.4,6.9,0.4,10.3c0.6,2.5,1.8,4.9,3.4,7c1,1.3,2.2,2.5,3.6,3.3c1,0.6,1.5,0.8,1.5,0.9c-0.5-0.2-1.1-0.5-1.6-0.8
				c-1.4-0.9-2.7-2-3.7-3.3c-1.6-2.1-2.8-4.5-3.5-7.1c-0.9-3.4-1-7-0.5-10.4c0.7-4.2,1.8-8.3,3.3-12.2c1.7-4.5,3.1-9.2,4.1-13.9
				c0.5-2.6,0.6-5.2,0.5-7.8c-0.2-2.7-0.8-5.4-1.9-7.9c-2.3-5.3-5.5-10.1-9.4-14.2c-3.9-4.3-8.4-8.1-13.6-10.2s-10.6-2.4-15.7-2.9
				c-2.5-0.2-5-0.6-7.4-1c-2.3-0.5-4.6-1.2-6.7-2.1c-3.9-1.7-7.5-3.9-10.7-6.7c-2.6-2.3-5-4.9-6.9-7.9c-0.5-0.6-0.8-1.3-1.2-1.9
				c-0.4-0.6-0.7-1.2-1-1.8L2.6,8C2.4,7.5,2.2,6.9,2,6.4C1.6,5.5,1.2,4.6,1,3.7c-0.2-0.7-0.4-1.3-0.6-2L0.1,0.4C0,0.3,0,0.1,0,0z"/>
		</g>
		<g id="Group_1584" transform="translate(31.51 0)">
			<path id="Path_1628" class="st13" d="M0,0c0,0,0.1,0.1,0.3,0.3l1,0.9c0.4,0.4,0.9,1,1.5,1.6C3.3,3.5,4,4.3,4.6,5.2
				c1.6,2.2,2.8,4.6,3.8,7.2c1.3,3.4,2.1,6.9,2.3,10.5c0.1,2.1,0,4.2-0.2,6.3c-0.3,2.3-0.8,4.5-1.5,6.7C7.8,40.4,5.9,45,4.6,50.1
				c-0.7,2.6-1,5.3-1.1,8c-0.1,2.8,0.2,5.6,0.8,8.3c1.3,5.8,3.9,11.1,7.7,15.7c3.7,4.6,8.4,8.4,13.6,11.1c4.9,2.6,10.1,4.4,15.5,5.4
				c5.2,0.9,10.2,1.2,14.8,1.9c4.4,0.5,8.6,1.8,12.5,3.8c3.2,1.7,6,4.1,8.3,6.9c2.8,3.4,4.8,7.5,5.7,11.9c0.1,0.6,0.2,1,0.2,1.3
				c0,0.3,0.1,0.5,0.1,0.5s0-0.1-0.1-0.4c-0.1-0.3-0.2-0.8-0.3-1.3c-0.4-1.7-0.9-3.3-1.6-4.9c-1.1-2.5-2.5-4.8-4.2-6.9
				c-2.3-2.8-5.1-5.1-8.2-6.8c-3.9-1.9-8.1-3.2-12.4-3.7c-4.6-0.7-9.7-0.9-14.9-1.9c-5.5-1-10.7-2.8-15.7-5.4
				c-5.3-2.8-10-6.6-13.8-11.2c-3.8-4.7-6.4-10.1-7.8-16c-0.6-2.8-0.9-5.6-0.8-8.4C3,55.4,3.4,52.7,4.1,50c1.3-5.1,3.2-9.8,4.5-14.3
				c0.7-2.2,1.1-4.4,1.5-6.6c0.3-2.1,0.4-4.1,0.3-6.2c-0.2-3.6-1-7.1-2.2-10.4c-1-2.5-2.2-4.9-3.7-7.2C3.8,4.4,3.2,3.6,2.6,2.9
				c-0.6-0.6-1-1.2-1.4-1.6c-0.4-0.4-0.7-0.7-0.9-1C0.1,0.1,0,0,0,0z"/>
		</g>
		<g id="Group_1585" transform="translate(73.085 111.041)">
			<path id="Path_1629" class="st13" d="M35.4,0c-0.4,0.4-0.8,0.8-1.2,1.1c-0.8,0.7-2,1.7-3.5,2.8c-3.9,3-8,5.8-12.2,8.4
				c-4.2,2.6-8.5,5-13,7.1c-1.7,0.8-3.1,1.4-4.1,1.9c-0.5,0.2-1,0.4-1.5,0.6c0.5-0.3,0.9-0.6,1.4-0.8l4-2c3.4-1.7,8-4.2,12.9-7.2
				s9.2-6,12.2-8.2l3.6-2.7C34.5,0.6,35,0.3,35.4,0z"/>
		</g>
		<g id="Group_1586" transform="translate(69.635 104.551)">
			<path id="Path_1630" class="st13" d="M30.6,0c-0.4,0.3-0.8,0.5-1.2,0.7L26,2.6c-2.9,1.6-6.8,3.8-11,6.3S7,14,4.4,15.8L1.2,18
				c-0.4,0.3-0.8,0.5-1.2,0.8c0.3-0.3,0.7-0.7,1.1-0.9c0.7-0.6,1.8-1.4,3.1-2.3c2.6-1.9,6.3-4.5,10.6-7.1s8.2-4.8,11.1-6.2
				c1.5-0.7,2.6-1.3,3.5-1.7C29.7,0.3,30.1,0.1,30.6,0z"/>
		</g>
		<g id="Group_1587" transform="translate(70.985 102.039)">
			<path id="Path_1631" class="st13" d="M17.3,0c-0.7,0.7-1.5,1.2-2.4,1.7c-1.5,1-3.6,2.4-6,3.8S4.3,8.2,2.7,9.1
				C1.8,9.6,0.9,10,0,10.4c0.8-0.6,1.6-1.1,2.5-1.6l6.1-3.7l6.1-3.7C15.5,0.9,16.4,0.4,17.3,0z"/>
		</g>
		<g id="Group_1588" transform="translate(64.499 88.856)">
			<path id="Path_1632" class="st13" d="M12.6,0c-0.6,0.5-1.2,1-1.8,1.3C9.5,2.2,8,3.2,6.4,4.3C4.7,5.5,3.2,6.5,1.9,7.4
				C1.3,7.9,0.7,8.3,0,8.6C0.5,8,1.1,7.5,1.7,7.1c1.1-0.9,2.6-2,4.4-3.2S9.4,1.7,10.6,1C11.3,0.6,11.9,0.3,12.6,0z"/>
		</g>
		<g id="Group_1589" transform="translate(54.081 77.112)">
			<path id="Path_1633" class="st13" d="M22.2,0c0,0.1-1.3,0.8-3.4,2s-5,3-8.1,5.1S4.9,11.4,3.1,13s-3,2.6-3.1,2.5
				c0.2-0.3,0.4-0.6,0.7-0.8c0.5-0.5,1.2-1.2,2.1-2c4.8-4.3,10.1-8,15.7-11.1c1.1-0.6,2-1,2.6-1.3C21.5,0.2,21.8,0.1,22.2,0z"/>
		</g>
		<g id="Group_1590" transform="translate(45.856 68.002)">
			<path id="Path_1634" class="st13" d="M24.6,0c0.1,0.1-5.4,4.1-12.1,8.8S0.1,17.3,0,17.1s5.4-4.1,12.1-8.8S24.5-0.1,24.6,0z"/>
		</g>
		<g id="Group_1591" transform="translate(38.971 57.731)">
			<path id="Path_1635" class="st13" d="M26.8,0c-0.3,0.3-0.7,0.6-1,0.8l-2.9,2c-2.5,1.7-5.9,4-9.6,6.6s-7,5.1-9.4,6.9
				c-1.1,0.9-2.1,1.6-2.8,2.1c-0.3,0.3-0.7,0.5-1.1,0.7c0.3-0.3,0.6-0.6,0.9-0.9c0.6-0.5,1.6-1.3,2.7-2.3c2.3-1.9,5.6-4.4,9.3-7
				s7.2-4.9,9.7-6.5c1.3-0.8,2.3-1.4,3-1.8C26,0.4,26.4,0.2,26.8,0z"/>
		</g>
		<g id="Group_1592" transform="translate(35.341 52.033)">
			<path id="Path_1636" class="st13" d="M20.9,0c0.1,0.1-4.5,3.5-10.3,7.5S0.1,14.6,0,14.5S4.5,11,10.3,7S20.8-0.1,20.9,0z"/>
		</g>
		<g id="Group_1593" transform="translate(35.283 46.309)">
			<path id="Path_1637" class="st13" d="M10.9,0C9.3,1.7,7.5,3.2,5.6,4.6C3.9,6.1,2,7.5,0,8.7c1.7-1.7,3.4-3.2,5.3-4.6
				C7.1,2.6,9,1.2,10.9,0z"/>
		</g>
		<g id="Group_1594" transform="translate(22.66 31.902)">
			<path id="Path_1638" class="st13" d="M16.8,0c-0.7,0.8-1.4,1.5-2.3,2.1C13.1,3.3,11.1,5,8.7,6.7S4.2,9.9,2.6,11
				c-0.8,0.6-1.7,1.1-2.6,1.6c0.8-0.7,1.6-1.3,2.4-1.9C4,9.6,6.1,8,8.4,6.3s4.4-3.3,5.9-4.5C15.1,1.1,15.9,0.5,16.8,0z"/>
		</g>
		<g id="Group_1595" transform="translate(13.76 22.114)">
			<path id="Path_1639" class="st13" d="M28.6,0c-0.3,0.3-0.7,0.6-1,0.8c-0.7,0.5-1.7,1.2-2.9,2c-2.5,1.7-6,3.9-9.9,6.2
				s-7.6,4.2-10.3,5.6C3.1,15.2,2,15.7,1.2,16c-0.4,0.2-0.8,0.4-1.2,0.5c0.3-0.3,0.7-0.5,1.1-0.7l3.1-1.7c2.6-1.4,6.3-3.4,10.2-5.7
				s7.5-4.4,10-6l3-1.9C27.8,0.4,28.2,0.2,28.6,0z"/>
		</g>
		<g id="Group_1596" transform="translate(7.107 11.646)">
			<path id="Path_1640" class="st13" d="M30.6,0c-0.3,0.3-0.7,0.6-1.1,0.9c-0.7,0.5-1.8,1.3-3.2,2.2c-2.7,1.8-6.5,4.3-10.7,6.9
				s-8.1,4.9-10.9,6.5c-1.4,0.8-2.6,1.5-3.4,1.9c-0.4,0.3-0.8,0.5-1.3,0.6c0.4-0.3,0.8-0.6,1.2-0.8l3.3-2l10.8-6.7l10.8-6.7
				c1.3-0.8,2.4-1.5,3.3-2C29.8,0.4,30.2,0.2,30.6,0z"/>
		</g>
	</g>
</g>
</svg>
